(kicad_sch (version 20230121) (generator eeschema)

  (uuid 3b4e1f48-ae2f-4702-877e-657e4333bab1)

  (paper "A4")

  (lib_symbols
    (symbol "Connector:Conn_01x05_Pin" (pin_names (offset 1.016) hide) (in_bom yes) (on_board yes)
      (property "Reference" "J" (at 0 7.62 0)
        (effects (font (size 1.27 1.27)))
      )
      (property "Value" "Conn_01x05_Pin" (at 0 -7.62 0)
        (effects (font (size 1.27 1.27)))
      )
      (property "Footprint" "" (at 0 0 0)
        (effects (font (size 1.27 1.27)) hide)
      )
      (property "Datasheet" "~" (at 0 0 0)
        (effects (font (size 1.27 1.27)) hide)
      )
      (property "ki_locked" "" (at 0 0 0)
        (effects (font (size 1.27 1.27)))
      )
      (property "ki_keywords" "connector" (at 0 0 0)
        (effects (font (size 1.27 1.27)) hide)
      )
      (property "ki_description" "Generic connector, single row, 01x05, script generated" (at 0 0 0)
        (effects (font (size 1.27 1.27)) hide)
      )
      (property "ki_fp_filters" "Connector*:*_1x??_*" (at 0 0 0)
        (effects (font (size 1.27 1.27)) hide)
      )
      (symbol "Conn_01x05_Pin_1_1"
        (polyline
          (pts
            (xy 1.27 -5.08)
            (xy 0.8636 -5.08)
          )
          (stroke (width 0.1524) (type default))
          (fill (type none))
        )
        (polyline
          (pts
            (xy 1.27 -2.54)
            (xy 0.8636 -2.54)
          )
          (stroke (width 0.1524) (type default))
          (fill (type none))
        )
        (polyline
          (pts
            (xy 1.27 0)
            (xy 0.8636 0)
          )
          (stroke (width 0.1524) (type default))
          (fill (type none))
        )
        (polyline
          (pts
            (xy 1.27 2.54)
            (xy 0.8636 2.54)
          )
          (stroke (width 0.1524) (type default))
          (fill (type none))
        )
        (polyline
          (pts
            (xy 1.27 5.08)
            (xy 0.8636 5.08)
          )
          (stroke (width 0.1524) (type default))
          (fill (type none))
        )
        (rectangle (start 0.8636 -4.953) (end 0 -5.207)
          (stroke (width 0.1524) (type default))
          (fill (type outline))
        )
        (rectangle (start 0.8636 -2.413) (end 0 -2.667)
          (stroke (width 0.1524) (type default))
          (fill (type outline))
        )
        (rectangle (start 0.8636 0.127) (end 0 -0.127)
          (stroke (width 0.1524) (type default))
          (fill (type outline))
        )
        (rectangle (start 0.8636 2.667) (end 0 2.413)
          (stroke (width 0.1524) (type default))
          (fill (type outline))
        )
        (rectangle (start 0.8636 5.207) (end 0 4.953)
          (stroke (width 0.1524) (type default))
          (fill (type outline))
        )
        (pin passive line (at 5.08 5.08 180) (length 3.81)
          (name "Pin_1" (effects (font (size 1.27 1.27))))
          (number "1" (effects (font (size 1.27 1.27))))
        )
        (pin passive line (at 5.08 2.54 180) (length 3.81)
          (name "Pin_2" (effects (font (size 1.27 1.27))))
          (number "2" (effects (font (size 1.27 1.27))))
        )
        (pin passive line (at 5.08 0 180) (length 3.81)
          (name "Pin_3" (effects (font (size 1.27 1.27))))
          (number "3" (effects (font (size 1.27 1.27))))
        )
        (pin passive line (at 5.08 -2.54 180) (length 3.81)
          (name "Pin_4" (effects (font (size 1.27 1.27))))
          (number "4" (effects (font (size 1.27 1.27))))
        )
        (pin passive line (at 5.08 -5.08 180) (length 3.81)
          (name "Pin_5" (effects (font (size 1.27 1.27))))
          (number "5" (effects (font (size 1.27 1.27))))
        )
      )
    )
    (symbol "Device:C" (pin_numbers hide) (pin_names (offset 0.254)) (in_bom yes) (on_board yes)
      (property "Reference" "C" (at 0.635 2.54 0)
        (effects (font (size 1.27 1.27)) (justify left))
      )
      (property "Value" "C" (at 0.635 -2.54 0)
        (effects (font (size 1.27 1.27)) (justify left))
      )
      (property "Footprint" "" (at 0.9652 -3.81 0)
        (effects (font (size 1.27 1.27)) hide)
      )
      (property "Datasheet" "~" (at 0 0 0)
        (effects (font (size 1.27 1.27)) hide)
      )
      (property "ki_keywords" "cap capacitor" (at 0 0 0)
        (effects (font (size 1.27 1.27)) hide)
      )
      (property "ki_description" "Unpolarized capacitor" (at 0 0 0)
        (effects (font (size 1.27 1.27)) hide)
      )
      (property "ki_fp_filters" "C_*" (at 0 0 0)
        (effects (font (size 1.27 1.27)) hide)
      )
      (symbol "C_0_1"
        (polyline
          (pts
            (xy -2.032 -0.762)
            (xy 2.032 -0.762)
          )
          (stroke (width 0.508) (type default))
          (fill (type none))
        )
        (polyline
          (pts
            (xy -2.032 0.762)
            (xy 2.032 0.762)
          )
          (stroke (width 0.508) (type default))
          (fill (type none))
        )
      )
      (symbol "C_1_1"
        (pin passive line (at 0 3.81 270) (length 2.794)
          (name "~" (effects (font (size 1.27 1.27))))
          (number "1" (effects (font (size 1.27 1.27))))
        )
        (pin passive line (at 0 -3.81 90) (length 2.794)
          (name "~" (effects (font (size 1.27 1.27))))
          (number "2" (effects (font (size 1.27 1.27))))
        )
      )
    )
    (symbol "Device:R" (pin_numbers hide) (pin_names (offset 0)) (in_bom yes) (on_board yes)
      (property "Reference" "R" (at 2.032 0 90)
        (effects (font (size 1.27 1.27)))
      )
      (property "Value" "R" (at 0 0 90)
        (effects (font (size 1.27 1.27)))
      )
      (property "Footprint" "" (at -1.778 0 90)
        (effects (font (size 1.27 1.27)) hide)
      )
      (property "Datasheet" "~" (at 0 0 0)
        (effects (font (size 1.27 1.27)) hide)
      )
      (property "ki_keywords" "R res resistor" (at 0 0 0)
        (effects (font (size 1.27 1.27)) hide)
      )
      (property "ki_description" "Resistor" (at 0 0 0)
        (effects (font (size 1.27 1.27)) hide)
      )
      (property "ki_fp_filters" "R_*" (at 0 0 0)
        (effects (font (size 1.27 1.27)) hide)
      )
      (symbol "R_0_1"
        (rectangle (start -1.016 -2.54) (end 1.016 2.54)
          (stroke (width 0.254) (type default))
          (fill (type none))
        )
      )
      (symbol "R_1_1"
        (pin passive line (at 0 3.81 270) (length 1.27)
          (name "~" (effects (font (size 1.27 1.27))))
          (number "1" (effects (font (size 1.27 1.27))))
        )
        (pin passive line (at 0 -3.81 90) (length 1.27)
          (name "~" (effects (font (size 1.27 1.27))))
          (number "2" (effects (font (size 1.27 1.27))))
        )
      )
    )
    (symbol "Device:RotaryEncoder_Switch" (pin_names (offset 0.254) hide) (in_bom yes) (on_board yes)
      (property "Reference" "SW" (at 0 6.604 0)
        (effects (font (size 1.27 1.27)))
      )
      (property "Value" "RotaryEncoder_Switch" (at 0 -6.604 0)
        (effects (font (size 1.27 1.27)))
      )
      (property "Footprint" "" (at -3.81 4.064 0)
        (effects (font (size 1.27 1.27)) hide)
      )
      (property "Datasheet" "~" (at 0 6.604 0)
        (effects (font (size 1.27 1.27)) hide)
      )
      (property "ki_keywords" "rotary switch encoder switch push button" (at 0 0 0)
        (effects (font (size 1.27 1.27)) hide)
      )
      (property "ki_description" "Rotary encoder, dual channel, incremental quadrate outputs, with switch" (at 0 0 0)
        (effects (font (size 1.27 1.27)) hide)
      )
      (property "ki_fp_filters" "RotaryEncoder*Switch*" (at 0 0 0)
        (effects (font (size 1.27 1.27)) hide)
      )
      (symbol "RotaryEncoder_Switch_0_1"
        (rectangle (start -5.08 5.08) (end 5.08 -5.08)
          (stroke (width 0.254) (type default))
          (fill (type background))
        )
        (circle (center -3.81 0) (radius 0.254)
          (stroke (width 0) (type default))
          (fill (type outline))
        )
        (circle (center -0.381 0) (radius 1.905)
          (stroke (width 0.254) (type default))
          (fill (type none))
        )
        (arc (start -0.381 2.667) (mid -3.0988 -0.0635) (end -0.381 -2.794)
          (stroke (width 0.254) (type default))
          (fill (type none))
        )
        (polyline
          (pts
            (xy -0.635 -1.778)
            (xy -0.635 1.778)
          )
          (stroke (width 0.254) (type default))
          (fill (type none))
        )
        (polyline
          (pts
            (xy -0.381 -1.778)
            (xy -0.381 1.778)
          )
          (stroke (width 0.254) (type default))
          (fill (type none))
        )
        (polyline
          (pts
            (xy -0.127 1.778)
            (xy -0.127 -1.778)
          )
          (stroke (width 0.254) (type default))
          (fill (type none))
        )
        (polyline
          (pts
            (xy 3.81 0)
            (xy 3.429 0)
          )
          (stroke (width 0.254) (type default))
          (fill (type none))
        )
        (polyline
          (pts
            (xy 3.81 1.016)
            (xy 3.81 -1.016)
          )
          (stroke (width 0.254) (type default))
          (fill (type none))
        )
        (polyline
          (pts
            (xy -5.08 -2.54)
            (xy -3.81 -2.54)
            (xy -3.81 -2.032)
          )
          (stroke (width 0) (type default))
          (fill (type none))
        )
        (polyline
          (pts
            (xy -5.08 2.54)
            (xy -3.81 2.54)
            (xy -3.81 2.032)
          )
          (stroke (width 0) (type default))
          (fill (type none))
        )
        (polyline
          (pts
            (xy 0.254 -3.048)
            (xy -0.508 -2.794)
            (xy 0.127 -2.413)
          )
          (stroke (width 0.254) (type default))
          (fill (type none))
        )
        (polyline
          (pts
            (xy 0.254 2.921)
            (xy -0.508 2.667)
            (xy 0.127 2.286)
          )
          (stroke (width 0.254) (type default))
          (fill (type none))
        )
        (polyline
          (pts
            (xy 5.08 -2.54)
            (xy 4.318 -2.54)
            (xy 4.318 -1.016)
          )
          (stroke (width 0.254) (type default))
          (fill (type none))
        )
        (polyline
          (pts
            (xy 5.08 2.54)
            (xy 4.318 2.54)
            (xy 4.318 1.016)
          )
          (stroke (width 0.254) (type default))
          (fill (type none))
        )
        (polyline
          (pts
            (xy -5.08 0)
            (xy -3.81 0)
            (xy -3.81 -1.016)
            (xy -3.302 -2.032)
          )
          (stroke (width 0) (type default))
          (fill (type none))
        )
        (polyline
          (pts
            (xy -4.318 0)
            (xy -3.81 0)
            (xy -3.81 1.016)
            (xy -3.302 2.032)
          )
          (stroke (width 0) (type default))
          (fill (type none))
        )
        (circle (center 4.318 -1.016) (radius 0.127)
          (stroke (width 0.254) (type default))
          (fill (type none))
        )
        (circle (center 4.318 1.016) (radius 0.127)
          (stroke (width 0.254) (type default))
          (fill (type none))
        )
      )
      (symbol "RotaryEncoder_Switch_1_1"
        (pin passive line (at -7.62 2.54 0) (length 2.54)
          (name "A" (effects (font (size 1.27 1.27))))
          (number "A" (effects (font (size 1.27 1.27))))
        )
        (pin passive line (at -7.62 -2.54 0) (length 2.54)
          (name "B" (effects (font (size 1.27 1.27))))
          (number "B" (effects (font (size 1.27 1.27))))
        )
        (pin passive line (at -7.62 0 0) (length 2.54)
          (name "C" (effects (font (size 1.27 1.27))))
          (number "C" (effects (font (size 1.27 1.27))))
        )
        (pin passive line (at 7.62 2.54 180) (length 2.54)
          (name "S1" (effects (font (size 1.27 1.27))))
          (number "S1" (effects (font (size 1.27 1.27))))
        )
        (pin passive line (at 7.62 -2.54 180) (length 2.54)
          (name "S2" (effects (font (size 1.27 1.27))))
          (number "S2" (effects (font (size 1.27 1.27))))
        )
      )
    )
    (symbol "power:+5V" (power) (pin_names (offset 0)) (in_bom yes) (on_board yes)
      (property "Reference" "#PWR" (at 0 -3.81 0)
        (effects (font (size 1.27 1.27)) hide)
      )
      (property "Value" "+5V" (at 0 3.556 0)
        (effects (font (size 1.27 1.27)))
      )
      (property "Footprint" "" (at 0 0 0)
        (effects (font (size 1.27 1.27)) hide)
      )
      (property "Datasheet" "" (at 0 0 0)
        (effects (font (size 1.27 1.27)) hide)
      )
      (property "ki_keywords" "global power" (at 0 0 0)
        (effects (font (size 1.27 1.27)) hide)
      )
      (property "ki_description" "Power symbol creates a global label with name \"+5V\"" (at 0 0 0)
        (effects (font (size 1.27 1.27)) hide)
      )
      (symbol "+5V_0_1"
        (polyline
          (pts
            (xy -0.762 1.27)
            (xy 0 2.54)
          )
          (stroke (width 0) (type default))
          (fill (type none))
        )
        (polyline
          (pts
            (xy 0 0)
            (xy 0 2.54)
          )
          (stroke (width 0) (type default))
          (fill (type none))
        )
        (polyline
          (pts
            (xy 0 2.54)
            (xy 0.762 1.27)
          )
          (stroke (width 0) (type default))
          (fill (type none))
        )
      )
      (symbol "+5V_1_1"
        (pin power_in line (at 0 0 90) (length 0) hide
          (name "+5V" (effects (font (size 1.27 1.27))))
          (number "1" (effects (font (size 1.27 1.27))))
        )
      )
    )
    (symbol "power:GND" (power) (pin_names (offset 0)) (in_bom yes) (on_board yes)
      (property "Reference" "#PWR" (at 0 -6.35 0)
        (effects (font (size 1.27 1.27)) hide)
      )
      (property "Value" "GND" (at 0 -3.81 0)
        (effects (font (size 1.27 1.27)))
      )
      (property "Footprint" "" (at 0 0 0)
        (effects (font (size 1.27 1.27)) hide)
      )
      (property "Datasheet" "" (at 0 0 0)
        (effects (font (size 1.27 1.27)) hide)
      )
      (property "ki_keywords" "global power" (at 0 0 0)
        (effects (font (size 1.27 1.27)) hide)
      )
      (property "ki_description" "Power symbol creates a global label with name \"GND\" , ground" (at 0 0 0)
        (effects (font (size 1.27 1.27)) hide)
      )
      (symbol "GND_0_1"
        (polyline
          (pts
            (xy 0 0)
            (xy 0 -1.27)
            (xy 1.27 -1.27)
            (xy 0 -2.54)
            (xy -1.27 -1.27)
            (xy 0 -1.27)
          )
          (stroke (width 0) (type default))
          (fill (type none))
        )
      )
      (symbol "GND_1_1"
        (pin power_in line (at 0 0 270) (length 0) hide
          (name "GND" (effects (font (size 1.27 1.27))))
          (number "1" (effects (font (size 1.27 1.27))))
        )
      )
    )
    (symbol "power:PWR_FLAG" (power) (pin_numbers hide) (pin_names (offset 0) hide) (in_bom yes) (on_board yes)
      (property "Reference" "#FLG" (at 0 1.905 0)
        (effects (font (size 1.27 1.27)) hide)
      )
      (property "Value" "PWR_FLAG" (at 0 3.81 0)
        (effects (font (size 1.27 1.27)))
      )
      (property "Footprint" "" (at 0 0 0)
        (effects (font (size 1.27 1.27)) hide)
      )
      (property "Datasheet" "~" (at 0 0 0)
        (effects (font (size 1.27 1.27)) hide)
      )
      (property "ki_keywords" "flag power" (at 0 0 0)
        (effects (font (size 1.27 1.27)) hide)
      )
      (property "ki_description" "Special symbol for telling ERC where power comes from" (at 0 0 0)
        (effects (font (size 1.27 1.27)) hide)
      )
      (symbol "PWR_FLAG_0_0"
        (pin power_out line (at 0 0 90) (length 0)
          (name "pwr" (effects (font (size 1.27 1.27))))
          (number "1" (effects (font (size 1.27 1.27))))
        )
      )
      (symbol "PWR_FLAG_0_1"
        (polyline
          (pts
            (xy 0 0)
            (xy 0 1.27)
            (xy -1.016 1.905)
            (xy 0 2.54)
            (xy 1.016 1.905)
            (xy 0 1.27)
          )
          (stroke (width 0) (type default))
          (fill (type none))
        )
      )
    )
  )

  (junction (at 148.59 80.01) (diameter 0) (color 0 0 0 0)
    (uuid 1374fd97-0f32-44e4-a32d-085406cb8c2c)
  )
  (junction (at 100.33 85.09) (diameter 0) (color 0 0 0 0)
    (uuid 332afff8-d4d6-4436-afe0-379f9fe2bd5f)
  )
  (junction (at 162.56 92.71) (diameter 0) (color 0 0 0 0)
    (uuid 3e66debe-3957-45b2-826d-9125c93ed71b)
  )
  (junction (at 142.24 92.71) (diameter 0) (color 0 0 0 0)
    (uuid 63d8b5f2-de80-47cf-b3e4-ce08b4bde6d5)
  )
  (junction (at 121.92 68.58) (diameter 0) (color 0 0 0 0)
    (uuid 67048332-b906-4670-ad49-e45ee7ec9467)
  )
  (junction (at 162.56 80.01) (diameter 0) (color 0 0 0 0)
    (uuid 757e6579-3ab3-4496-8ccf-9eac0f1fa163)
  )
  (junction (at 195.58 87.63) (diameter 0) (color 0 0 0 0)
    (uuid 8b0ebeed-3829-4705-b378-3d825d469486)
  )
  (junction (at 195.58 77.47) (diameter 0) (color 0 0 0 0)
    (uuid b0490ca3-f706-4f39-b5f8-9613817f270c)
  )
  (junction (at 87.63 80.01) (diameter 0) (color 0 0 0 0)
    (uuid bc3bd26a-8a1c-40fb-9598-a0cc5d6da697)
  )
  (junction (at 115.57 85.09) (diameter 0) (color 0 0 0 0)
    (uuid dec5b7ec-2b41-4e73-b84c-b4d95b615fc4)
  )
  (junction (at 121.92 80.01) (diameter 0) (color 0 0 0 0)
    (uuid f7a3b8ba-fc89-4c3b-973f-02118f872068)
  )

  (wire (pts (xy 100.33 85.09) (xy 96.52 85.09))
    (stroke (width 0) (type default))
    (uuid 013ef697-947f-4ac9-bb90-446e1e273cb7)
  )
  (wire (pts (xy 198.12 77.47) (xy 195.58 77.47))
    (stroke (width 0) (type default))
    (uuid 0d045ea5-d0af-46b4-b3b9-88bd1f8a9c96)
  )
  (wire (pts (xy 195.58 87.63) (xy 195.58 88.9))
    (stroke (width 0) (type default))
    (uuid 0eea7175-27bc-4e8f-b2a7-ea345192cc2d)
  )
  (wire (pts (xy 158.75 80.01) (xy 162.56 80.01))
    (stroke (width 0) (type default))
    (uuid 1bdd46ac-df34-4811-ae43-e700a1b440c5)
  )
  (wire (pts (xy 191.77 82.55) (xy 198.12 82.55))
    (stroke (width 0) (type default))
    (uuid 2bf09d20-90d1-4eda-972d-748ad079f674)
  )
  (wire (pts (xy 148.59 67.31) (xy 148.59 69.85))
    (stroke (width 0) (type default))
    (uuid 348987c2-83b3-4703-a7ad-7e3c44dd5e4b)
  )
  (wire (pts (xy 91.44 80.01) (xy 87.63 80.01))
    (stroke (width 0) (type default))
    (uuid 3516f901-3a69-470f-bd9c-aa78688cd405)
  )
  (wire (pts (xy 87.63 80.01) (xy 83.82 80.01))
    (stroke (width 0) (type default))
    (uuid 38c22027-a0d9-48a3-b081-d5ce3298246a)
  )
  (wire (pts (xy 142.24 92.71) (xy 162.56 92.71))
    (stroke (width 0) (type default))
    (uuid 3b45efd7-df74-4a57-a3d2-abb2fb2e6109)
  )
  (wire (pts (xy 140.97 85.09) (xy 142.24 85.09))
    (stroke (width 0) (type default))
    (uuid 3e949d13-f603-4c36-82b4-56d118b95e3e)
  )
  (wire (pts (xy 87.63 95.25) (xy 87.63 100.33))
    (stroke (width 0) (type default))
    (uuid 40041731-040d-48c9-bd3f-b5062dc287b1)
  )
  (wire (pts (xy 191.77 72.39) (xy 191.77 77.47))
    (stroke (width 0) (type default))
    (uuid 408a53f6-d174-4c25-92aa-c2e806ed2822)
  )
  (wire (pts (xy 87.63 80.01) (xy 87.63 87.63))
    (stroke (width 0) (type default))
    (uuid 44b77f8f-67e2-4997-bbf8-9fc9673f01ed)
  )
  (wire (pts (xy 151.13 80.01) (xy 148.59 80.01))
    (stroke (width 0) (type default))
    (uuid 463d68e2-cba3-42e6-8b94-b19ab34c6a35)
  )
  (wire (pts (xy 115.57 85.09) (xy 125.73 85.09))
    (stroke (width 0) (type default))
    (uuid 4aa67a65-5eaa-4875-972d-abb7fd37dec2)
  )
  (wire (pts (xy 162.56 80.01) (xy 162.56 82.55))
    (stroke (width 0) (type default))
    (uuid 4d1864cd-9d02-4471-a665-9773f634bb57)
  )
  (wire (pts (xy 162.56 80.01) (xy 166.37 80.01))
    (stroke (width 0) (type default))
    (uuid 5392e15a-b984-4f48-b890-8e3d11bf5ffb)
  )
  (wire (pts (xy 125.73 82.55) (xy 123.19 82.55))
    (stroke (width 0) (type default))
    (uuid 543412c8-0514-4980-80df-cf55ddc6beb4)
  )
  (wire (pts (xy 162.56 92.71) (xy 162.56 95.25))
    (stroke (width 0) (type default))
    (uuid 550f45e4-eb60-4e76-9595-dfeff50408ec)
  )
  (wire (pts (xy 148.59 80.01) (xy 148.59 77.47))
    (stroke (width 0) (type default))
    (uuid 55b6009f-34c9-44c3-8b7a-e0d60f93ceb3)
  )
  (wire (pts (xy 115.57 68.58) (xy 121.92 68.58))
    (stroke (width 0) (type default))
    (uuid 5a8dad55-7e97-428c-bd0f-5a0fd3542a1d)
  )
  (wire (pts (xy 123.19 92.71) (xy 142.24 92.71))
    (stroke (width 0) (type default))
    (uuid 5f71b6f9-c2cb-4d85-9e8c-04d1a87e548a)
  )
  (wire (pts (xy 140.97 80.01) (xy 148.59 80.01))
    (stroke (width 0) (type default))
    (uuid 65d23b1f-9f09-4060-af74-e6ac5a610240)
  )
  (wire (pts (xy 100.33 95.25) (xy 100.33 100.33))
    (stroke (width 0) (type default))
    (uuid 66f7afe7-a406-40b8-ae9c-08622c964ff1)
  )
  (wire (pts (xy 121.92 67.31) (xy 121.92 68.58))
    (stroke (width 0) (type default))
    (uuid 7137c609-fe6d-411c-b79c-51498900d83f)
  )
  (wire (pts (xy 100.33 85.09) (xy 100.33 87.63))
    (stroke (width 0) (type default))
    (uuid 7345948e-8d7d-4055-b7f2-0f4eb23bb468)
  )
  (wire (pts (xy 191.77 77.47) (xy 195.58 77.47))
    (stroke (width 0) (type default))
    (uuid 7eea4397-7985-41e7-8cc7-54819a22a79c)
  )
  (wire (pts (xy 198.12 87.63) (xy 195.58 87.63))
    (stroke (width 0) (type default))
    (uuid 8d82cc35-7bd3-4430-ae75-1acfe0e6424f)
  )
  (wire (pts (xy 99.06 80.01) (xy 121.92 80.01))
    (stroke (width 0) (type default))
    (uuid 91e4836d-43ca-49fc-9cb1-a08d4d13be65)
  )
  (wire (pts (xy 104.14 85.09) (xy 100.33 85.09))
    (stroke (width 0) (type default))
    (uuid 93e0283e-712b-4bb5-88de-6592e0e0fdd4)
  )
  (wire (pts (xy 142.24 85.09) (xy 142.24 92.71))
    (stroke (width 0) (type default))
    (uuid 9d766b10-4f93-418b-84fd-7ea21774a7f3)
  )
  (wire (pts (xy 191.77 87.63) (xy 195.58 87.63))
    (stroke (width 0) (type default))
    (uuid a68f47e0-f597-4cdb-aadf-b34fe4866c6a)
  )
  (wire (pts (xy 121.92 68.58) (xy 121.92 69.85))
    (stroke (width 0) (type default))
    (uuid aa659a1e-8556-4751-95ea-73499a464544)
  )
  (wire (pts (xy 121.92 80.01) (xy 121.92 77.47))
    (stroke (width 0) (type default))
    (uuid afe0290e-3d74-44e0-8798-94f0aeab8bf4)
  )
  (wire (pts (xy 191.77 80.01) (xy 198.12 80.01))
    (stroke (width 0) (type default))
    (uuid b4b8dd3d-dde7-4f2a-be63-6f12d491e495)
  )
  (wire (pts (xy 191.77 91.44) (xy 191.77 87.63))
    (stroke (width 0) (type default))
    (uuid b94e54cf-8cb1-4124-a79e-bd079b2566ea)
  )
  (wire (pts (xy 123.19 82.55) (xy 123.19 92.71))
    (stroke (width 0) (type default))
    (uuid bdb32cdb-7087-478e-bc30-7fa3570c5cc7)
  )
  (wire (pts (xy 191.77 85.09) (xy 198.12 85.09))
    (stroke (width 0) (type default))
    (uuid e43c482c-42c5-450b-bdf9-3a6a55077254)
  )
  (wire (pts (xy 115.57 77.47) (xy 115.57 85.09))
    (stroke (width 0) (type default))
    (uuid e5883d96-d2a6-46c0-803d-827f7b6135a6)
  )
  (wire (pts (xy 115.57 69.85) (xy 115.57 68.58))
    (stroke (width 0) (type default))
    (uuid e90bd24d-3307-43d3-9af1-20f7600f94df)
  )
  (wire (pts (xy 111.76 85.09) (xy 115.57 85.09))
    (stroke (width 0) (type default))
    (uuid f106cf99-01b1-4fbb-b89d-b9e214a4ce9b)
  )
  (wire (pts (xy 195.58 77.47) (xy 195.58 74.93))
    (stroke (width 0) (type default))
    (uuid f169939f-e51d-4999-9289-190264d1411a)
  )
  (wire (pts (xy 162.56 90.17) (xy 162.56 92.71))
    (stroke (width 0) (type default))
    (uuid f7980cd6-ecea-4f49-bfc7-1e75b380bc2b)
  )
  (wire (pts (xy 121.92 80.01) (xy 125.73 80.01))
    (stroke (width 0) (type default))
    (uuid f95764cd-6728-462c-92d5-7ae82c908c93)
  )

  (label "BTN" (at 166.37 80.01 0) (fields_autoplaced)
    (effects (font (size 1.27 1.27)) (justify left bottom))
    (uuid 0f1a05de-cb35-4b8b-b503-d82cbcc8c538)
  )
  (label "INC1" (at 83.82 80.01 180) (fields_autoplaced)
    (effects (font (size 1.27 1.27)) (justify right bottom))
    (uuid 73e84250-b80d-4663-96fb-97d55229fc67)
  )
  (label "INC2" (at 191.77 82.55 0) (fields_autoplaced)
    (effects (font (size 1.27 1.27)) (justify left bottom))
    (uuid 789256f7-b19f-4375-8b5c-8628b1a901a1)
  )
  (label "BTN" (at 191.77 85.09 0) (fields_autoplaced)
    (effects (font (size 1.27 1.27)) (justify left bottom))
    (uuid 966724c8-a61c-4264-ade4-189e7eb51014)
  )
  (label "INC2" (at 96.52 85.09 180) (fields_autoplaced)
    (effects (font (size 1.27 1.27)) (justify right bottom))
    (uuid a41e9dcc-0602-4409-8ed1-02927f1961ba)
  )
  (label "INC1" (at 191.77 80.01 0) (fields_autoplaced)
    (effects (font (size 1.27 1.27)) (justify left bottom))
    (uuid bb216356-c20d-4a29-9cfe-38cbe8c3cef4)
  )

  (symbol (lib_id "power:PWR_FLAG") (at 191.77 91.44 180) (unit 1)
    (in_bom yes) (on_board yes) (dnp no) (fields_autoplaced)
    (uuid 085e5e02-3aec-4034-8148-43700f0c78c5)
    (property "Reference" "#FLG02" (at 191.77 93.345 0)
      (effects (font (size 1.27 1.27)) hide)
    )
    (property "Value" "PWR_FLAG" (at 191.77 96.52 0)
      (effects (font (size 1.27 1.27)))
    )
    (property "Footprint" "" (at 191.77 91.44 0)
      (effects (font (size 1.27 1.27)) hide)
    )
    (property "Datasheet" "~" (at 191.77 91.44 0)
      (effects (font (size 1.27 1.27)) hide)
    )
    (pin "1" (uuid d51f88fb-4ef0-4c03-bd78-26a97fc76ada))
    (instances
      (project "rotary_encoder"
        (path "/3b4e1f48-ae2f-4702-877e-657e4333bab1"
          (reference "#FLG02") (unit 1)
        )
      )
    )
  )

  (symbol (lib_id "power:PWR_FLAG") (at 191.77 72.39 0) (unit 1)
    (in_bom yes) (on_board yes) (dnp no) (fields_autoplaced)
    (uuid 1f82f53d-645d-4d53-9838-b1fec37ee4e8)
    (property "Reference" "#FLG01" (at 191.77 70.485 0)
      (effects (font (size 1.27 1.27)) hide)
    )
    (property "Value" "PWR_FLAG" (at 191.77 68.58 0)
      (effects (font (size 1.27 1.27)))
    )
    (property "Footprint" "" (at 191.77 72.39 0)
      (effects (font (size 1.27 1.27)) hide)
    )
    (property "Datasheet" "~" (at 191.77 72.39 0)
      (effects (font (size 1.27 1.27)) hide)
    )
    (pin "1" (uuid 1a02a8cb-6443-4ae9-a581-05128ca30419))
    (instances
      (project "rotary_encoder"
        (path "/3b4e1f48-ae2f-4702-877e-657e4333bab1"
          (reference "#FLG01") (unit 1)
        )
      )
    )
  )

  (symbol (lib_id "Device:R") (at 115.57 73.66 0) (mirror y) (unit 1)
    (in_bom yes) (on_board yes) (dnp no)
    (uuid 23fe9db4-5c5f-49c7-b52d-4cd9e5672d6c)
    (property "Reference" "R6" (at 113.03 74.93 90)
      (effects (font (size 1.27 1.27)) (justify left))
    )
    (property "Value" "10k" (at 115.57 74.93 90)
      (effects (font (size 1.27 1.27)) (justify left))
    )
    (property "Footprint" "Resistor_SMD:R_0805_2012Metric" (at 117.348 73.66 90)
      (effects (font (size 1.27 1.27)) hide)
    )
    (property "Datasheet" "~" (at 115.57 73.66 0)
      (effects (font (size 1.27 1.27)) hide)
    )
    (pin "1" (uuid 489a5619-8067-4784-af08-bfe989dbacb3))
    (pin "2" (uuid ef389eae-2336-4176-909c-e25e9ddf865c))
    (instances
      (project "rotary_encoder"
        (path "/3b4e1f48-ae2f-4702-877e-657e4333bab1"
          (reference "R6") (unit 1)
        )
      )
    )
  )

  (symbol (lib_id "power:GND") (at 195.58 88.9 0) (unit 1)
    (in_bom yes) (on_board yes) (dnp no) (fields_autoplaced)
    (uuid 2687ddaa-590a-4e99-92c3-70be2686f4d8)
    (property "Reference" "#PWR04" (at 195.58 95.25 0)
      (effects (font (size 1.27 1.27)) hide)
    )
    (property "Value" "GND" (at 195.58 93.98 0)
      (effects (font (size 1.27 1.27)))
    )
    (property "Footprint" "" (at 195.58 88.9 0)
      (effects (font (size 1.27 1.27)) hide)
    )
    (property "Datasheet" "" (at 195.58 88.9 0)
      (effects (font (size 1.27 1.27)) hide)
    )
    (pin "1" (uuid 09c693fc-1afc-4873-a5cd-a9c5ada3ac6e))
    (instances
      (project "rotary_encoder"
        (path "/3b4e1f48-ae2f-4702-877e-657e4333bab1"
          (reference "#PWR04") (unit 1)
        )
      )
    )
  )

  (symbol (lib_id "power:+5V") (at 121.92 67.31 0) (mirror y) (unit 1)
    (in_bom yes) (on_board yes) (dnp no) (fields_autoplaced)
    (uuid 307bdd3f-3dca-450f-a3bd-6465cf9438a7)
    (property "Reference" "#PWR05" (at 121.92 71.12 0)
      (effects (font (size 1.27 1.27)) hide)
    )
    (property "Value" "+5V" (at 121.92 63.5 0)
      (effects (font (size 1.27 1.27)))
    )
    (property "Footprint" "" (at 121.92 67.31 0)
      (effects (font (size 1.27 1.27)) hide)
    )
    (property "Datasheet" "" (at 121.92 67.31 0)
      (effects (font (size 1.27 1.27)) hide)
    )
    (pin "1" (uuid 61bf2b8e-fc6d-4259-b86b-457a7a3d1584))
    (instances
      (project "rotary_encoder"
        (path "/3b4e1f48-ae2f-4702-877e-657e4333bab1"
          (reference "#PWR05") (unit 1)
        )
      )
    )
  )

  (symbol (lib_id "Device:R") (at 148.59 73.66 0) (unit 1)
    (in_bom yes) (on_board yes) (dnp no) (fields_autoplaced)
    (uuid 398dd19e-e2c7-4826-b94c-af8f586ec8c0)
    (property "Reference" "R1" (at 151.13 73.025 0)
      (effects (font (size 1.27 1.27)) (justify left))
    )
    (property "Value" "10k" (at 151.13 75.565 0)
      (effects (font (size 1.27 1.27)) (justify left))
    )
    (property "Footprint" "Resistor_SMD:R_0805_2012Metric" (at 146.812 73.66 90)
      (effects (font (size 1.27 1.27)) hide)
    )
    (property "Datasheet" "~" (at 148.59 73.66 0)
      (effects (font (size 1.27 1.27)) hide)
    )
    (pin "1" (uuid b419d1c9-418a-4819-9fee-bb9cbd9ac183))
    (pin "2" (uuid 606d4d89-3ab1-4eca-9da0-8f9baf9e0c56))
    (instances
      (project "rotary_encoder"
        (path "/3b4e1f48-ae2f-4702-877e-657e4333bab1"
          (reference "R1") (unit 1)
        )
      )
    )
  )

  (symbol (lib_id "Device:R") (at 121.92 73.66 0) (mirror y) (unit 1)
    (in_bom yes) (on_board yes) (dnp no)
    (uuid 625f2fcb-0ec6-4266-a42d-aeac5a6b6261)
    (property "Reference" "R3" (at 119.38 74.93 90)
      (effects (font (size 1.27 1.27)) (justify left))
    )
    (property "Value" "10k" (at 121.92 74.93 90)
      (effects (font (size 1.27 1.27)) (justify left))
    )
    (property "Footprint" "Resistor_SMD:R_0805_2012Metric" (at 123.698 73.66 90)
      (effects (font (size 1.27 1.27)) hide)
    )
    (property "Datasheet" "~" (at 121.92 73.66 0)
      (effects (font (size 1.27 1.27)) hide)
    )
    (pin "1" (uuid 98ac3318-d011-4033-9aaf-fe81e99e6465))
    (pin "2" (uuid b48bf2a2-2c1e-48be-a98e-f410bac0f168))
    (instances
      (project "rotary_encoder"
        (path "/3b4e1f48-ae2f-4702-877e-657e4333bab1"
          (reference "R3") (unit 1)
        )
      )
    )
  )

  (symbol (lib_id "Connector:Conn_01x05_Pin") (at 203.2 82.55 0) (mirror y) (unit 1)
    (in_bom yes) (on_board yes) (dnp no)
    (uuid 63af5efe-2cb6-45dd-b915-7f14c28deebc)
    (property "Reference" "J1" (at 202.565 73.66 0)
      (effects (font (size 1.27 1.27)))
    )
    (property "Value" "Conn_01x05_Pin" (at 202.565 76.2 0)
      (effects (font (size 1.27 1.27)) hide)
    )
    (property "Footprint" "Connector_PinHeader_2.54mm:PinHeader_1x05_P2.54mm_Vertical" (at 203.2 82.55 0)
      (effects (font (size 1.27 1.27)) hide)
    )
    (property "Datasheet" "~" (at 203.2 82.55 0)
      (effects (font (size 1.27 1.27)) hide)
    )
    (pin "1" (uuid 3a6e96cc-23c2-46b0-b437-91380f4d9798))
    (pin "2" (uuid 019428b4-e4a2-4ceb-9c66-b873e7eac57b))
    (pin "3" (uuid a49af7f9-eb16-415c-85de-8a73b7d3f01c))
    (pin "4" (uuid cfe43617-8cb6-4f86-bac2-a84ec6c8241e))
    (pin "5" (uuid 4164caf9-4f02-4773-9ac7-3a23c1505e3d))
    (instances
      (project "rotary_encoder"
        (path "/3b4e1f48-ae2f-4702-877e-657e4333bab1"
          (reference "J1") (unit 1)
        )
      )
    )
  )

  (symbol (lib_id "Device:R") (at 107.95 85.09 270) (mirror x) (unit 1)
    (in_bom yes) (on_board yes) (dnp no)
    (uuid 689a0608-2754-4b5a-9655-50c3df989460)
    (property "Reference" "R5" (at 107.95 83.058 90)
      (effects (font (size 1.27 1.27)))
    )
    (property "Value" "10k" (at 107.95 85.09 90)
      (effects (font (size 1.27 1.27)))
    )
    (property "Footprint" "Resistor_SMD:R_0805_2012Metric" (at 107.95 86.868 90)
      (effects (font (size 1.27 1.27)) hide)
    )
    (property "Datasheet" "~" (at 107.95 85.09 0)
      (effects (font (size 1.27 1.27)) hide)
    )
    (pin "1" (uuid 250031a5-d4e2-4513-8d04-05f83f837650))
    (pin "2" (uuid 2c1064c2-058e-4c8e-8e1e-276e56491f7b))
    (instances
      (project "rotary_encoder"
        (path "/3b4e1f48-ae2f-4702-877e-657e4333bab1"
          (reference "R5") (unit 1)
        )
      )
    )
  )

  (symbol (lib_id "Device:R") (at 95.25 80.01 270) (mirror x) (unit 1)
    (in_bom yes) (on_board yes) (dnp no)
    (uuid 71962fde-c760-4988-a52e-45d48ca4771e)
    (property "Reference" "R4" (at 95.25 77.978 90)
      (effects (font (size 1.27 1.27)))
    )
    (property "Value" "10k" (at 95.25 80.01 90)
      (effects (font (size 1.27 1.27)))
    )
    (property "Footprint" "Resistor_SMD:R_0805_2012Metric" (at 95.25 81.788 90)
      (effects (font (size 1.27 1.27)) hide)
    )
    (property "Datasheet" "~" (at 95.25 80.01 0)
      (effects (font (size 1.27 1.27)) hide)
    )
    (pin "1" (uuid 9f70e67e-c595-4d5a-8555-38b9462a8533))
    (pin "2" (uuid 07e84f9c-b6eb-4022-a783-041e0f2b57de))
    (instances
      (project "rotary_encoder"
        (path "/3b4e1f48-ae2f-4702-877e-657e4333bab1"
          (reference "R4") (unit 1)
        )
      )
    )
  )

  (symbol (lib_id "power:+5V") (at 148.59 67.31 0) (unit 1)
    (in_bom yes) (on_board yes) (dnp no) (fields_autoplaced)
    (uuid 7bd73852-719a-459b-991a-dee71bee2019)
    (property "Reference" "#PWR02" (at 148.59 71.12 0)
      (effects (font (size 1.27 1.27)) hide)
    )
    (property "Value" "+5V" (at 148.59 63.5 0)
      (effects (font (size 1.27 1.27)))
    )
    (property "Footprint" "" (at 148.59 67.31 0)
      (effects (font (size 1.27 1.27)) hide)
    )
    (property "Datasheet" "" (at 148.59 67.31 0)
      (effects (font (size 1.27 1.27)) hide)
    )
    (pin "1" (uuid bd1d3da5-2eb2-47a0-a215-6734ba1d0be7))
    (instances
      (project "rotary_encoder"
        (path "/3b4e1f48-ae2f-4702-877e-657e4333bab1"
          (reference "#PWR02") (unit 1)
        )
      )
    )
  )

  (symbol (lib_id "power:GND") (at 100.33 100.33 0) (mirror y) (unit 1)
    (in_bom yes) (on_board yes) (dnp no) (fields_autoplaced)
    (uuid 85103371-3d47-42d9-840f-d86daf97a965)
    (property "Reference" "#PWR07" (at 100.33 106.68 0)
      (effects (font (size 1.27 1.27)) hide)
    )
    (property "Value" "GND" (at 100.33 105.41 0)
      (effects (font (size 1.27 1.27)))
    )
    (property "Footprint" "" (at 100.33 100.33 0)
      (effects (font (size 1.27 1.27)) hide)
    )
    (property "Datasheet" "" (at 100.33 100.33 0)
      (effects (font (size 1.27 1.27)) hide)
    )
    (pin "1" (uuid 23fdabf0-9ba4-4b21-962d-d722662ae070))
    (instances
      (project "rotary_encoder"
        (path "/3b4e1f48-ae2f-4702-877e-657e4333bab1"
          (reference "#PWR07") (unit 1)
        )
      )
    )
  )

  (symbol (lib_id "Device:C") (at 100.33 91.44 0) (mirror y) (unit 1)
    (in_bom yes) (on_board yes) (dnp no) (fields_autoplaced)
    (uuid a7c835cf-df9d-4f4f-85b1-dd3bbfa108db)
    (property "Reference" "C3" (at 96.52 90.805 0)
      (effects (font (size 1.27 1.27)) (justify left))
    )
    (property "Value" "10nF" (at 96.52 93.345 0)
      (effects (font (size 1.27 1.27)) (justify left))
    )
    (property "Footprint" "Capacitor_SMD:C_0805_2012Metric" (at 99.3648 95.25 0)
      (effects (font (size 1.27 1.27)) hide)
    )
    (property "Datasheet" "~" (at 100.33 91.44 0)
      (effects (font (size 1.27 1.27)) hide)
    )
    (pin "1" (uuid 61ba4688-887e-4aeb-ab62-f9076d36c69f))
    (pin "2" (uuid 86050ce1-44dd-4fe9-8c1a-8e610d21dba1))
    (instances
      (project "rotary_encoder"
        (path "/3b4e1f48-ae2f-4702-877e-657e4333bab1"
          (reference "C3") (unit 1)
        )
      )
    )
  )

  (symbol (lib_id "Device:C") (at 162.56 86.36 0) (unit 1)
    (in_bom yes) (on_board yes) (dnp no) (fields_autoplaced)
    (uuid b4724044-cb57-4789-9a61-ece5b7d1164a)
    (property "Reference" "C1" (at 166.37 85.725 0)
      (effects (font (size 1.27 1.27)) (justify left))
    )
    (property "Value" "10nF" (at 166.37 88.265 0)
      (effects (font (size 1.27 1.27)) (justify left))
    )
    (property "Footprint" "Capacitor_SMD:C_0805_2012Metric" (at 163.5252 90.17 0)
      (effects (font (size 1.27 1.27)) hide)
    )
    (property "Datasheet" "~" (at 162.56 86.36 0)
      (effects (font (size 1.27 1.27)) hide)
    )
    (pin "1" (uuid f0058069-d73a-4ad0-bc11-0a3828f159ab))
    (pin "2" (uuid 62282a7d-05d6-44ea-9200-dc27eb230ea4))
    (instances
      (project "rotary_encoder"
        (path "/3b4e1f48-ae2f-4702-877e-657e4333bab1"
          (reference "C1") (unit 1)
        )
      )
    )
  )

  (symbol (lib_id "power:GND") (at 162.56 95.25 0) (unit 1)
    (in_bom yes) (on_board yes) (dnp no) (fields_autoplaced)
    (uuid c0754b22-7467-4e5c-a488-138db2f73856)
    (property "Reference" "#PWR01" (at 162.56 101.6 0)
      (effects (font (size 1.27 1.27)) hide)
    )
    (property "Value" "GND" (at 162.56 100.33 0)
      (effects (font (size 1.27 1.27)))
    )
    (property "Footprint" "" (at 162.56 95.25 0)
      (effects (font (size 1.27 1.27)) hide)
    )
    (property "Datasheet" "" (at 162.56 95.25 0)
      (effects (font (size 1.27 1.27)) hide)
    )
    (pin "1" (uuid 81d1b3c1-3e1b-4fcd-b428-edf5eada178e))
    (instances
      (project "rotary_encoder"
        (path "/3b4e1f48-ae2f-4702-877e-657e4333bab1"
          (reference "#PWR01") (unit 1)
        )
      )
    )
  )

  (symbol (lib_id "Device:C") (at 87.63 91.44 0) (mirror y) (unit 1)
    (in_bom yes) (on_board yes) (dnp no) (fields_autoplaced)
    (uuid c3057289-bd94-489b-972c-23ea7edc8749)
    (property "Reference" "C2" (at 83.82 90.805 0)
      (effects (font (size 1.27 1.27)) (justify left))
    )
    (property "Value" "10nF" (at 83.82 93.345 0)
      (effects (font (size 1.27 1.27)) (justify left))
    )
    (property "Footprint" "Capacitor_SMD:C_0805_2012Metric" (at 86.6648 95.25 0)
      (effects (font (size 1.27 1.27)) hide)
    )
    (property "Datasheet" "~" (at 87.63 91.44 0)
      (effects (font (size 1.27 1.27)) hide)
    )
    (pin "1" (uuid 4e3a26cb-fb70-4cba-94f4-55f7c4f9c2af))
    (pin "2" (uuid 35ae9a2f-a856-4ad0-af77-984b5a312e41))
    (instances
      (project "rotary_encoder"
        (path "/3b4e1f48-ae2f-4702-877e-657e4333bab1"
          (reference "C2") (unit 1)
        )
      )
    )
  )

  (symbol (lib_id "power:GND") (at 87.63 100.33 0) (mirror y) (unit 1)
    (in_bom yes) (on_board yes) (dnp no) (fields_autoplaced)
    (uuid c38f99e4-311e-4345-aa0e-a13f6e8d9132)
    (property "Reference" "#PWR06" (at 87.63 106.68 0)
      (effects (font (size 1.27 1.27)) hide)
    )
    (property "Value" "GND" (at 87.63 105.41 0)
      (effects (font (size 1.27 1.27)))
    )
    (property "Footprint" "" (at 87.63 100.33 0)
      (effects (font (size 1.27 1.27)) hide)
    )
    (property "Datasheet" "" (at 87.63 100.33 0)
      (effects (font (size 1.27 1.27)) hide)
    )
    (pin "1" (uuid 8862d472-539a-442e-a647-da64f3347fcd))
    (instances
      (project "rotary_encoder"
        (path "/3b4e1f48-ae2f-4702-877e-657e4333bab1"
          (reference "#PWR06") (unit 1)
        )
      )
    )
  )

  (symbol (lib_id "Device:R") (at 154.94 80.01 90) (unit 1)
    (in_bom yes) (on_board yes) (dnp no)
    (uuid c6f21d3f-be34-4047-9e2d-5b2ca38b76e0)
    (property "Reference" "R2" (at 154.94 77.978 90)
      (effects (font (size 1.27 1.27)))
    )
    (property "Value" "10k" (at 154.94 80.01 90)
      (effects (font (size 1.27 1.27)))
    )
    (property "Footprint" "Resistor_SMD:R_0805_2012Metric" (at 154.94 81.788 90)
      (effects (font (size 1.27 1.27)) hide)
    )
    (property "Datasheet" "~" (at 154.94 80.01 0)
      (effects (font (size 1.27 1.27)) hide)
    )
    (pin "1" (uuid 43706105-ae3b-4a8d-a5a1-4864a2d71993))
    (pin "2" (uuid 871e4798-aced-4ea6-b9ad-615c59067f25))
    (instances
      (project "rotary_encoder"
        (path "/3b4e1f48-ae2f-4702-877e-657e4333bab1"
          (reference "R2") (unit 1)
        )
      )
    )
  )

  (symbol (lib_id "Device:RotaryEncoder_Switch") (at 133.35 82.55 0) (unit 1)
    (in_bom no) (on_board yes) (dnp no)
    (uuid e2449a7c-9227-4809-b392-eff4d5d2c3a3)
    (property "Reference" "SW1" (at 133.35 76.2 0)
      (effects (font (size 1.27 1.27)))
    )
    (property "Value" "RotaryEncoder_Switch" (at 133.35 76.2 0)
      (effects (font (size 1.27 1.27)) hide)
    )
    (property "Footprint" "Rotary_Encoder:RotaryEncoder_Alps_EC12E-Switch_Vertical_H20mm" (at 129.54 78.486 0)
      (effects (font (size 1.27 1.27)) hide)
    )
    (property "Datasheet" "~" (at 133.35 75.946 0)
      (effects (font (size 1.27 1.27)) hide)
    )
    (pin "A" (uuid 6d3c23ee-71f0-49c5-b893-ed0b3c19c8df))
    (pin "B" (uuid 5e93700a-8a33-4aca-84b6-fc65707c1840))
    (pin "C" (uuid eab82403-8e37-47ab-8f10-ca512cab2aea))
    (pin "S1" (uuid 36e36035-a017-45a9-bb11-4198c321d1c3))
    (pin "S2" (uuid 23f8b301-249c-4f3a-9a0b-1b685f1c6d76))
    (instances
      (project "rotary_encoder"
        (path "/3b4e1f48-ae2f-4702-877e-657e4333bab1"
          (reference "SW1") (unit 1)
        )
      )
    )
  )

  (symbol (lib_id "power:+5V") (at 195.58 74.93 0) (unit 1)
    (in_bom yes) (on_board yes) (dnp no) (fields_autoplaced)
    (uuid f1b58b1c-eff6-42b1-aaa2-6bfb0b74a32c)
    (property "Reference" "#PWR03" (at 195.58 78.74 0)
      (effects (font (size 1.27 1.27)) hide)
    )
    (property "Value" "+5V" (at 195.58 71.12 0)
      (effects (font (size 1.27 1.27)))
    )
    (property "Footprint" "" (at 195.58 74.93 0)
      (effects (font (size 1.27 1.27)) hide)
    )
    (property "Datasheet" "" (at 195.58 74.93 0)
      (effects (font (size 1.27 1.27)) hide)
    )
    (pin "1" (uuid aed58666-307a-410d-bea5-afef5482f33e))
    (instances
      (project "rotary_encoder"
        (path "/3b4e1f48-ae2f-4702-877e-657e4333bab1"
          (reference "#PWR03") (unit 1)
        )
      )
    )
  )

  (sheet_instances
    (path "/" (page "1"))
  )
)
