(kicad_pcb (version 20221018) (generator pcbnew)

  (general
    (thickness 1.6)
  )

  (paper "A4")
  (layers
    (0 "F.Cu" signal)
    (31 "B.Cu" signal)
    (32 "B.Adhes" user "B.Adhesive")
    (33 "F.Adhes" user "F.Adhesive")
    (34 "B.Paste" user)
    (35 "F.Paste" user)
    (36 "B.SilkS" user "B.Silkscreen")
    (37 "F.SilkS" user "F.Silkscreen")
    (38 "B.Mask" user)
    (39 "F.Mask" user)
    (40 "Dwgs.User" user "User.Drawings")
    (41 "Cmts.User" user "User.Comments")
    (42 "Eco1.User" user "User.Eco1")
    (43 "Eco2.User" user "User.Eco2")
    (44 "Edge.Cuts" user)
    (45 "Margin" user)
    (46 "B.CrtYd" user "B.Courtyard")
    (47 "F.CrtYd" user "F.Courtyard")
    (48 "B.Fab" user)
    (49 "F.Fab" user)
    (50 "User.1" user)
    (51 "User.2" user)
    (52 "User.3" user)
    (53 "User.4" user)
    (54 "User.5" user)
    (55 "User.6" user)
    (56 "User.7" user)
    (57 "User.8" user)
    (58 "User.9" user)
  )

  (setup
    (pad_to_mask_clearance 0)
    (pcbplotparams
      (layerselection 0x00010fc_ffffffff)
      (plot_on_all_layers_selection 0x0000000_00000000)
      (disableapertmacros false)
      (usegerberextensions false)
      (usegerberattributes true)
      (usegerberadvancedattributes true)
      (creategerberjobfile true)
      (dashed_line_dash_ratio 12.000000)
      (dashed_line_gap_ratio 3.000000)
      (svgprecision 4)
      (plotframeref false)
      (viasonmask false)
      (mode 1)
      (useauxorigin false)
      (hpglpennumber 1)
      (hpglpenspeed 20)
      (hpglpendiameter 15.000000)
      (dxfpolygonmode true)
      (dxfimperialunits true)
      (dxfusepcbnewfont true)
      (psnegative false)
      (psa4output false)
      (plotreference true)
      (plotvalue true)
      (plotinvisibletext false)
      (sketchpadsonfab false)
      (subtractmaskfromsilk false)
      (outputformat 1)
      (mirror false)
      (drillshape 1)
      (scaleselection 1)
      (outputdirectory "")
    )
  )

  (net 0 "")
  (net 1 "+3V3")
  (net 2 "+5V")
  (net 3 "SDA1")
  (net 4 "SCL1")
  (net 5 "GND")
  (net 6 "unconnected-(J1-GPIO14{slash}TXD-Pad8)")
  (net 7 "unconnected-(J1-GPIO15{slash}RXD-Pad10)")
  (net 8 "unconnected-(J1-GPIO17-Pad11)")
  (net 9 "unconnected-(J1-GPIO18{slash}PWM0-Pad12)")
  (net 10 "unconnected-(J1-GPIO27-Pad13)")
  (net 11 "unconnected-(J1-GPIO22-Pad15)")
  (net 12 "unconnected-(J1-GPIO23-Pad16)")
  (net 13 "unconnected-(J1-GPIO24-Pad18)")
  (net 14 "unconnected-(J1-MOSI0{slash}GPIO10-Pad19)")
  (net 15 "unconnected-(J1-MISO0{slash}GPIO9-Pad21)")
  (net 16 "unconnected-(J1-GPIO25-Pad22)")
  (net 17 "unconnected-(J1-SCLK0{slash}GPIO11-Pad23)")
  (net 18 "unconnected-(J1-~{CE0}{slash}GPIO8-Pad24)")
  (net 19 "unconnected-(J1-~{CE1}{slash}GPIO7-Pad26)")
  (net 20 "unconnected-(J1-ID_SD{slash}GPIO0-Pad27)")
  (net 21 "unconnected-(J1-ID_SC{slash}GPIO1-Pad28)")
  (net 22 "unconnected-(J1-PWM0{slash}GPIO12-Pad32)")
  (net 23 "unconnected-(J1-PWM1{slash}GPIO13-Pad33)")
  (net 24 "unconnected-(J1-GPIO19{slash}MISO1-Pad35)")
  (net 25 "unconnected-(J1-GPIO16-Pad36)")
  (net 26 "unconnected-(J1-GPIO26-Pad37)")
  (net 27 "unconnected-(J1-GPIO20{slash}MOSI1-Pad38)")
  (net 28 "unconnected-(J1-GPIO21{slash}SCLK1-Pad40)")
  (net 29 "Net-(Q1-D)")
  (net 30 "Net-(Q2-D)")
  (net 31 "BTN_IN")
  (net 32 "Net-(C1-Pad1)")
  (net 33 "Net-(C2-Pad1)")
  (net 34 "Net-(C3-Pad1)")
  (net 35 "INC1_IN")
  (net 36 "INC2_IN")

  (footprint "Resistor_SMD:R_0805_2012Metric" (layer "F.Cu")
    (tstamp 38a4d98f-d44a-4fbe-80d4-fc5c41f89854)
    (at 118.84 57.98)
    (descr "Resistor SMD 0805 (2012 Metric), square (rectangular) end terminal, IPC_7351 nominal, (Body size source: IPC-SM-782 page 72, https://www.pcb-3d.com/wordpress/wp-content/uploads/ipc-sm-782a_amendment_1_and_2.pdf), generated with kicad-footprint-generator")
    (tags "resistor")
    (property "Sheetfile" "mainboard.kicad_sch")
    (property "Sheetname" "")
    (property "ki_description" "Resistor")
    (property "ki_keywords" "R res resistor")
    (path "/41caa6e0-400c-466f-afcb-f74513b7dd5c")
    (attr smd)
    (fp_text reference "R2" (at 0 -1.65) (layer "F.SilkS")
        (effects (font (size 1 1) (thickness 0.15)))
      (tstamp 88e1fa67-5c7b-4edf-a5bd-a5559d9c7b90)
    )
    (fp_text value "R" (at 0 1.65) (layer "F.Fab")
        (effects (font (size 1 1) (thickness 0.15)))
      (tstamp 3d02d0e7-e2c0-4459-adfa-4ba973cd82c2)
    )
    (fp_text user "${REFERENCE}" (at 0 0) (layer "F.Fab")
        (effects (font (size 0.5 0.5) (thickness 0.08)))
      (tstamp a7c66979-73d4-4f8f-a64c-860f75bd3fb9)
    )
    (fp_line (start -0.227064 -0.735) (end 0.227064 -0.735)
      (stroke (width 0.12) (type solid)) (layer "F.SilkS") (tstamp 9725754c-365f-4674-9fbf-7d62fe6e1686))
    (fp_line (start -0.227064 0.735) (end 0.227064 0.735)
      (stroke (width 0.12) (type solid)) (layer "F.SilkS") (tstamp 0f7f28da-ec26-4b57-ad68-54bad416bcf7))
    (fp_line (start -1.68 -0.95) (end 1.68 -0.95)
      (stroke (width 0.05) (type solid)) (layer "F.CrtYd") (tstamp b3814d78-9e53-4230-b524-6d0e698fb304))
    (fp_line (start -1.68 0.95) (end -1.68 -0.95)
      (stroke (width 0.05) (type solid)) (layer "F.CrtYd") (tstamp a1128bb6-b5c3-4539-bbfc-dbfb5cf8f055))
    (fp_line (start 1.68 -0.95) (end 1.68 0.95)
      (stroke (width 0.05) (type solid)) (layer "F.CrtYd") (tstamp e3ead42b-bd81-4656-b594-e74e99b5b41f))
    (fp_line (start 1.68 0.95) (end -1.68 0.95)
      (stroke (width 0.05) (type solid)) (layer "F.CrtYd") (tstamp d22949cc-8109-4ad4-ac52-08fd8a09269c))
    (fp_line (start -1 -0.625) (end 1 -0.625)
      (stroke (width 0.1) (type solid)) (layer "F.Fab") (tstamp 4c255af2-500c-4f59-8ebb-35a8f188a541))
    (fp_line (start -1 0.625) (end -1 -0.625)
      (stroke (width 0.1) (type solid)) (layer "F.Fab") (tstamp 0893f20f-0d8b-4b72-bc74-b9987817525f))
    (fp_line (start 1 -0.625) (end 1 0.625)
      (stroke (width 0.1) (type solid)) (layer "F.Fab") (tstamp 092bd980-8010-490f-a154-7e7920eb3760))
    (fp_line (start 1 0.625) (end -1 0.625)
      (stroke (width 0.1) (type solid)) (layer "F.Fab") (tstamp 7cf5ff6c-af75-4788-8ff8-066d4708a811))
    (pad "1" smd roundrect (at -0.9125 0) (size 1.025 1.4) (layers "F.Cu" "F.Paste" "F.Mask") (roundrect_rratio 0.243902)
      (net 2 "+5V") (pintype "passive") (tstamp 81c1808d-0b01-41c7-b7f3-9747612fe78d))
    (pad "2" smd roundrect (at 0.9125 0) (size 1.025 1.4) (layers "F.Cu" "F.Paste" "F.Mask") (roundrect_rratio 0.243902)
      (net 29 "Net-(Q1-D)") (pintype "passive") (tstamp ed15bc28-2395-4f58-a3df-53e5847c4a74))
    (model "${KICAD6_3DMODEL_DIR}/Resistor_SMD.3dshapes/R_0805_2012Metric.wrl"
      (offset (xyz 0 0 0))
      (scale (xyz 1 1 1))
      (rotate (xyz 0 0 0))
    )
  )

  (footprint "Connector_PinHeader_2.54mm:PinHeader_2x20_P2.54mm_Vertical" (layer "F.Cu")
    (tstamp 3d9dca36-2712-4661-bee8-f2366511fcc6)
    (at 111.76 55.88)
    (descr "Through hole straight pin header, 2x20, 2.54mm pitch, double rows")
    (tags "Through hole pin header THT 2x20 2.54mm double row")
    (property "Sheetfile" "mainboard.kicad_sch")
    (property "Sheetname" "")
    (property "ki_description" "expansion header for Raspberry Pi 2 & 3")
    (property "ki_keywords" "raspberrypi gpio")
    (path "/ede43043-a03d-4042-bcc9-3b90a39ed394")
    (attr through_hole)
    (fp_text reference "J1" (at 1.27 -2.33) (layer "F.SilkS")
        (effects (font (size 1 1) (thickness 0.15)))
      (tstamp 29f3b53f-ac19-4dbe-905e-5a442c27a748)
    )
    (fp_text value "Raspberry_Pi_2_3" (at 1.27 50.59) (layer "F.Fab")
        (effects (font (size 1 1) (thickness 0.15)))
      (tstamp 96c85ac5-177e-4317-aa11-d4ce6b74ae2b)
    )
    (fp_text user "${REFERENCE}" (at 1.27 24.13 90) (layer "F.Fab")
        (effects (font (size 1 1) (thickness 0.15)))
      (tstamp 42d9d05f-8454-4de2-b5c7-3ad484342923)
    )
    (fp_line (start -1.33 -1.33) (end 0 -1.33)
      (stroke (width 0.12) (type solid)) (layer "F.SilkS") (tstamp e0c16064-3c49-4cb8-89f0-0186c5d704e8))
    (fp_line (start -1.33 0) (end -1.33 -1.33)
      (stroke (width 0.12) (type solid)) (layer "F.SilkS") (tstamp 60812065-1439-400a-9366-2ff9cfe338b1))
    (fp_line (start -1.33 1.27) (end -1.33 49.59)
      (stroke (width 0.12) (type solid)) (layer "F.SilkS") (tstamp 87a80079-f254-48ae-8b50-bf595e898ca4))
    (fp_line (start -1.33 1.27) (end 1.27 1.27)
      (stroke (width 0.12) (type solid)) (layer "F.SilkS") (tstamp 56c6d231-ec57-42fd-b362-6287f13e40ca))
    (fp_line (start -1.33 49.59) (end 3.87 49.59)
      (stroke (width 0.12) (type solid)) (layer "F.SilkS") (tstamp a7f4a7a3-8096-44eb-8cb0-63b9568db4d1))
    (fp_line (start 1.27 -1.33) (end 3.87 -1.33)
      (stroke (width 0.12) (type solid)) (layer "F.SilkS") (tstamp b1ffe2d1-ccd9-433c-b4e7-ea93d4e3976a))
    (fp_line (start 1.27 1.27) (end 1.27 -1.33)
      (stroke (width 0.12) (type solid)) (layer "F.SilkS") (tstamp e55d0085-6a9c-4c87-a07d-9d2da4585fc2))
    (fp_line (start 3.87 -1.33) (end 3.87 49.59)
      (stroke (width 0.12) (type solid)) (layer "F.SilkS") (tstamp fb903f23-7f56-40bd-8cdf-a9e0b15c4245))
    (fp_line (start -1.8 -1.8) (end -1.8 50.05)
      (stroke (width 0.05) (type solid)) (layer "F.CrtYd") (tstamp 5334f9a9-1f5f-4361-bd54-ca426717a6e4))
    (fp_line (start -1.8 50.05) (end 4.35 50.05)
      (stroke (width 0.05) (type solid)) (layer "F.CrtYd") (tstamp b2b54e99-5a98-414d-bdec-f0dc12b98d28))
    (fp_line (start 4.35 -1.8) (end -1.8 -1.8)
      (stroke (width 0.05) (type solid)) (layer "F.CrtYd") (tstamp 72435f1b-e74c-4c07-8f60-2fa842ebcdd9))
    (fp_line (start 4.35 50.05) (end 4.35 -1.8)
      (stroke (width 0.05) (type solid)) (layer "F.CrtYd") (tstamp d4f4b36c-311b-443e-9e96-e9c79ee99982))
    (fp_line (start -1.27 0) (end 0 -1.27)
      (stroke (width 0.1) (type solid)) (layer "F.Fab") (tstamp 3be094b6-91d6-421d-a71e-75bc416fd92d))
    (fp_line (start -1.27 49.53) (end -1.27 0)
      (stroke (width 0.1) (type solid)) (layer "F.Fab") (tstamp dca9843a-2106-45a8-a441-4bc6d7a73338))
    (fp_line (start 0 -1.27) (end 3.81 -1.27)
      (stroke (width 0.1) (type solid)) (layer "F.Fab") (tstamp 87ad04f9-3ebf-42bb-88bd-d8677b4fe563))
    (fp_line (start 3.81 -1.27) (end 3.81 49.53)
      (stroke (width 0.1) (type solid)) (layer "F.Fab") (tstamp c4a3d362-eede-43c6-b87a-b684d4601370))
    (fp_line (start 3.81 49.53) (end -1.27 49.53)
      (stroke (width 0.1) (type solid)) (layer "F.Fab") (tstamp e0be5d6b-a12c-48bd-aec5-20c96b275cf5))
    (pad "1" thru_hole rect (at 0 0) (size 1.7 1.7) (drill 1) (layers "*.Cu" "*.Mask")
      (net 1 "+3V3") (pinfunction "3V3") (pintype "power_in") (tstamp e5e8fe37-3fb6-4854-b05e-d60995b95412))
    (pad "2" thru_hole oval (at 2.54 0) (size 1.7 1.7) (drill 1) (layers "*.Cu" "*.Mask")
      (net 2 "+5V") (pinfunction "5V") (pintype "power_in") (tstamp a302fefe-3e10-4c90-a79a-d3e400acb6cc))
    (pad "3" thru_hole oval (at 0 2.54) (size 1.7 1.7) (drill 1) (layers "*.Cu" "*.Mask")
      (net 3 "SDA1") (pinfunction "SDA/GPIO2") (pintype "bidirectional") (tstamp 2764626f-615d-4d19-91d1-023a8ee24ead))
    (pad "4" thru_hole oval (at 2.54 2.54) (size 1.7 1.7) (drill 1) (layers "*.Cu" "*.Mask")
      (net 2 "+5V") (pinfunction "5V") (pintype "power_in") (tstamp 5105b46f-867e-4be5-ac76-86e9764a8be5))
    (pad "5" thru_hole oval (at 0 5.08) (size 1.7 1.7) (drill 1) (layers "*.Cu" "*.Mask")
      (net 4 "SCL1") (pinfunction "SCL/GPIO3") (pintype "bidirectional") (tstamp c12caf31-7162-417f-80f6-2bf7010219ad))
    (pad "6" thru_hole oval (at 2.54 5.08) (size 1.7 1.7) (drill 1) (layers "*.Cu" "*.Mask")
      (net 5 "GND") (pinfunction "GND") (pintype "power_in") (tstamp 5c0c123f-6db4-43ae-ad0e-fad8b0abef67))
    (pad "7" thru_hole oval (at 0 7.62) (size 1.7 1.7) (drill 1) (layers "*.Cu" "*.Mask")
      (net 31 "BTN_IN") (pinfunction "GCLK0/GPIO4") (pintype "bidirectional") (tstamp 02035048-e1e9-4713-b0fb-cc6f1dd6b4b6))
    (pad "8" thru_hole oval (at 2.54 7.62) (size 1.7 1.7) (drill 1) (layers "*.Cu" "*.Mask")
      (net 6 "unconnected-(J1-GPIO14{slash}TXD-Pad8)") (pinfunction "GPIO14/TXD") (pintype "bidirectional") (tstamp ca84feb3-77d2-46c2-99e3-efb6d5e7c386))
    (pad "9" thru_hole oval (at 0 10.16) (size 1.7 1.7) (drill 1) (layers "*.Cu" "*.Mask")
      (net 5 "GND") (pinfunction "GND") (pintype "power_in") (tstamp 31c6468f-34ec-40f9-8b26-d07ce5dcbd83))
    (pad "10" thru_hole oval (at 2.54 10.16) (size 1.7 1.7) (drill 1) (layers "*.Cu" "*.Mask")
      (net 7 "unconnected-(J1-GPIO15{slash}RXD-Pad10)") (pinfunction "GPIO15/RXD") (pintype "bidirectional") (tstamp 81675302-06c8-43ef-b76a-6305452a5c65))
    (pad "11" thru_hole oval (at 0 12.7) (size 1.7 1.7) (drill 1) (layers "*.Cu" "*.Mask")
      (net 8 "unconnected-(J1-GPIO17-Pad11)") (pinfunction "GPIO17") (pintype "bidirectional") (tstamp 80c192be-8bc9-4d11-bdf1-6ba6108cf652))
    (pad "12" thru_hole oval (at 2.54 12.7) (size 1.7 1.7) (drill 1) (layers "*.Cu" "*.Mask")
      (net 9 "unconnected-(J1-GPIO18{slash}PWM0-Pad12)") (pinfunction "GPIO18/PWM0") (pintype "bidirectional") (tstamp f5c9ced7-a413-4746-be26-2499900e4e01))
    (pad "13" thru_hole oval (at 0 15.24) (size 1.7 1.7) (drill 1) (layers "*.Cu" "*.Mask")
      (net 10 "unconnected-(J1-GPIO27-Pad13)") (pinfunction "GPIO27") (pintype "bidirectional") (tstamp ec917e13-f216-428c-9a85-668d4adf8bf0))
    (pad "14" thru_hole oval (at 2.54 15.24) (size 1.7 1.7) (drill 1) (layers "*.Cu" "*.Mask")
      (net 5 "GND") (pinfunction "GND") (pintype "power_in") (tstamp 6308bf08-3e3a-49fe-8fb9-e710aac0df5c))
    (pad "15" thru_hole oval (at 0 17.78) (size 1.7 1.7) (drill 1) (layers "*.Cu" "*.Mask")
      (net 11 "unconnected-(J1-GPIO22-Pad15)") (pinfunction "GPIO22") (pintype "bidirectional") (tstamp 7367342e-e641-4180-b9c0-728bf2547aaa))
    (pad "16" thru_hole oval (at 2.54 17.78) (size 1.7 1.7) (drill 1) (layers "*.Cu" "*.Mask")
      (net 12 "unconnected-(J1-GPIO23-Pad16)") (pinfunction "GPIO23") (pintype "bidirectional") (tstamp ac628a81-88e4-4ff0-8dc1-e5826387a9cb))
    (pad "17" thru_hole oval (at 0 20.32) (size 1.7 1.7) (drill 1) (layers "*.Cu" "*.Mask")
      (net 1 "+3V3") (pinfunction "3V3") (pintype "power_in") (tstamp 4950187e-a62e-4f77-8561-1c7720657962))
    (pad "18" thru_hole oval (at 2.54 20.32) (size 1.7 1.7) (drill 1) (layers "*.Cu" "*.Mask")
      (net 13 "unconnected-(J1-GPIO24-Pad18)") (pinfunction "GPIO24") (pintype "bidirectional") (tstamp 1ef29693-1194-45a0-ba61-15ac3c5949e7))
    (pad "19" thru_hole oval (at 0 22.86) (size 1.7 1.7) (drill 1) (layers "*.Cu" "*.Mask")
      (net 14 "unconnected-(J1-MOSI0{slash}GPIO10-Pad19)") (pinfunction "MOSI0/GPIO10") (pintype "bidirectional") (tstamp a58d809e-aef0-4bdb-abca-dbdcc7d20500))
    (pad "20" thru_hole oval (at 2.54 22.86) (size 1.7 1.7) (drill 1) (layers "*.Cu" "*.Mask")
      (net 5 "GND") (pinfunction "GND") (pintype "power_in") (tstamp 6be510ad-9862-4d74-be20-af9e8cce5b93))
    (pad "21" thru_hole oval (at 0 25.4) (size 1.7 1.7) (drill 1) (layers "*.Cu" "*.Mask")
      (net 15 "unconnected-(J1-MISO0{slash}GPIO9-Pad21)") (pinfunction "MISO0/GPIO9") (pintype "bidirectional") (tstamp 323aee2e-d2c1-4c4a-948d-c6228afbc88e))
    (pad "22" thru_hole oval (at 2.54 25.4) (size 1.7 1.7) (drill 1) (layers "*.Cu" "*.Mask")
      (net 16 "unconnected-(J1-GPIO25-Pad22)") (pinfunction "GPIO25") (pintype "bidirectional") (tstamp 4e06b80d-5b8c-424a-be22-ee8560e2baea))
    (pad "23" thru_hole oval (at 0 27.94) (size 1.7 1.7) (drill 1) (layers "*.Cu" "*.Mask")
      (net 17 "unconnected-(J1-SCLK0{slash}GPIO11-Pad23)") (pinfunction "SCLK0/GPIO11") (pintype "bidirectional") (tstamp e8a08ca5-12ed-42bc-a8f3-4624cc9924e7))
    (pad "24" thru_hole oval (at 2.54 27.94) (size 1.7 1.7) (drill 1) (layers "*.Cu" "*.Mask")
      (net 18 "unconnected-(J1-~{CE0}{slash}GPIO8-Pad24)") (pinfunction "~{CE0}/GPIO8") (pintype "bidirectional") (tstamp e3c2e76d-88ce-435c-a5f4-f48c0353430c))
    (pad "25" thru_hole oval (at 0 30.48) (size 1.7 1.7) (drill 1) (layers "*.Cu" "*.Mask")
      (net 5 "GND") (pinfunction "GND") (pintype "power_in") (tstamp 7a23c1df-4c1f-43db-bb08-2c4f09911240))
    (pad "26" thru_hole oval (at 2.54 30.48) (size 1.7 1.7) (drill 1) (layers "*.Cu" "*.Mask")
      (net 19 "unconnected-(J1-~{CE1}{slash}GPIO7-Pad26)") (pinfunction "~{CE1}/GPIO7") (pintype "bidirectional") (tstamp 1a073c0f-9420-4350-a224-b50003b907c1))
    (pad "27" thru_hole oval (at 0 33.02) (size 1.7 1.7) (drill 1) (layers "*.Cu" "*.Mask")
      (net 20 "unconnected-(J1-ID_SD{slash}GPIO0-Pad27)") (pinfunction "ID_SD/GPIO0") (pintype "bidirectional") (tstamp 8488d2aa-61d2-4d10-bd0f-cdc4edfef39d))
    (pad "28" thru_hole oval (at 2.54 33.02) (size 1.7 1.7) (drill 1) (layers "*.Cu" "*.Mask")
      (net 21 "unconnected-(J1-ID_SC{slash}GPIO1-Pad28)") (pinfunction "ID_SC/GPIO1") (pintype "bidirectional") (tstamp 5cc99f6c-7075-4fe9-b7d5-40d4f529a267))
    (pad "29" thru_hole oval (at 0 35.56) (size 1.7 1.7) (drill 1) (layers "*.Cu" "*.Mask")
      (net 35 "INC1_IN") (pinfunction "GCLK1/GPIO5") (pintype "bidirectional") (tstamp 32981121-00e2-4e2e-ab21-a70d74488a59))
    (pad "30" thru_hole oval (at 2.54 35.56) (size 1.7 1.7) (drill 1) (layers "*.Cu" "*.Mask")
      (net 5 "GND") (pinfunction "GND") (pintype "power_in") (tstamp 07cf5486-51ba-427c-a966-373b15eaf1f6))
    (pad "31" thru_hole oval (at 0 38.1) (size 1.7 1.7) (drill 1) (layers "*.Cu" "*.Mask")
      (net 36 "INC2_IN") (pinfunction "GCLK2/GPIO6") (pintype "bidirectional") (tstamp a71e0579-8dc0-47a8-8b03-623686557006))
    (pad "32" thru_hole oval (at 2.54 38.1) (size 1.7 1.7) (drill 1) (layers "*.Cu" "*.Mask")
      (net 22 "unconnected-(J1-PWM0{slash}GPIO12-Pad32)") (pinfunction "PWM0/GPIO12") (pintype "bidirectional") (tstamp 0a2ba29a-f27a-4309-95a9-852d42a9c294))
    (pad "33" thru_hole oval (at 0 40.64) (size 1.7 1.7) (drill 1) (layers "*.Cu" "*.Mask")
      (net 23 "unconnected-(J1-PWM1{slash}GPIO13-Pad33)") (pinfunction "PWM1/GPIO13") (pintype "bidirectional") (tstamp 88d3831d-3b1c-4be3-a93b-84346ea0512f))
    (pad "34" thru_hole oval (at 2.54 40.64) (size 1.7 1.7) (drill 1) (layers "*.Cu" "*.Mask")
      (net 5 "GND") (pinfunction "GND") (pintype "power_in") (tstamp 84189b47-43da-49b4-816e-dcc2eac33627))
    (pad "35" thru_hole oval (at 0 43.18) (size 1.7 1.7) (drill 1) (layers "*.Cu" "*.Mask")
      (net 24 "unconnected-(J1-GPIO19{slash}MISO1-Pad35)") (pinfunction "GPIO19/MISO1") (pintype "bidirectional") (tstamp 68e2e5e4-b575-4ca9-a40b-69c2ce14d659))
    (pad "36" thru_hole oval (at 2.54 43.18) (size 1.7 1.7) (drill 1) (layers "*.Cu" "*.Mask")
      (net 25 "unconnected-(J1-GPIO16-Pad36)") (pinfunction "GPIO16") (pintype "bidirectional") (tstamp 43c2ebb3-bd30-4f2f-8bdf-df61b993c014))
    (pad "37" thru_hole oval (at 0 45.72) (size 1.7 1.7) (drill 1) (layers "*.Cu" "*.Mask")
      (net 26 "unconnected-(J1-GPIO26-Pad37)") (pinfunction "GPIO26") (pintype "bidirectional") (tstamp 22a93cd0-2fb3-4444-a856-8f69953e48cb))
    (pad "38" thru_hole oval (at 2.54 45.72) (size 1.7 1.7) (drill 1) (layers "*.Cu" "*.Mask")
      (net 27 "unconnected-(J1-GPIO20{slash}MOSI1-Pad38)") (pinfunction "GPIO20/MOSI1") (pintype "bidirectional") (tstamp 98826883-ade9-4963-83ec-c732266f4f71))
    (pad "39" thru_hole oval (at 0 48.26) (size 1.7 1.7) (drill 1) (layers "*.Cu" "*.Mask")
      (net 5 "GND") (pinfunction "GND") (pintype "power_in") (tstamp e3f43f06-63be-40fc-bc5d-44e4ad036986))
    (pad "40" thru_hole oval (at 2.54 48.26) (size 1.7 1.7) (drill 1) (layers "*.Cu" "*.Mask")
      (net 28 "unconnected-(J1-GPIO21{slash}SCLK1-Pad40)") (pinfunction "GPIO21/SCLK1") (pintype "bidirectional") (tstamp f588eb67-d39c-4d63-bea9-2b14cb7d5c1a))
    (model "${KICAD6_3DMODEL_DIR}/Connector_PinHeader_2.54mm.3dshapes/PinHeader_2x20_P2.54mm_Vertical.wrl"
      (offset (xyz 0 0 0))
      (scale (xyz 1 1 1))
      (rotate (xyz 0 0 0))
    )
  )

  (footprint "Resistor_SMD:R_0805_2012Metric" (layer "F.Cu")
    (tstamp 4c73819a-963f-49ab-913c-8960e893326c)
    (at 135.89 88.9)
    (descr "Resistor SMD 0805 (2012 Metric), square (rectangular) end terminal, IPC_7351 nominal, (Body size source: IPC-SM-782 page 72, https://www.pcb-3d.com/wordpress/wp-content/uploads/ipc-sm-782a_amendment_1_and_2.pdf), generated with kicad-footprint-generator")
    (tags "resistor")
    (property "Sheetfile" "mainboard.kicad_sch")
    (property "Sheetname" "")
    (property "ki_description" "Resistor")
    (property "ki_keywords" "R res resistor")
    (path "/cd18c919-58fa-4b85-aa26-6d08af43e4b2")
    (attr smd)
    (fp_text reference "R10" (at 0 -1.65) (layer "F.SilkS")
        (effects (font (size 1 1) (thickness 0.15)))
      (tstamp 93d002fd-5b6f-4506-9b87-b41b44091ca5)
    )
    (fp_text value "10k" (at 0 1.65) (layer "F.Fab")
        (effects (font (size 1 1) (thickness 0.15)))
      (tstamp c148abd3-f336-4725-8cab-3c19ecb728bc)
    )
    (fp_text user "${REFERENCE}" (at 0 0) (layer "F.Fab")
        (effects (font (size 0.5 0.5) (thickness 0.08)))
      (tstamp be9eb987-dc49-40e3-99fd-9e3c0ce76408)
    )
    (fp_line (start -0.227064 -0.735) (end 0.227064 -0.735)
      (stroke (width 0.12) (type solid)) (layer "F.SilkS") (tstamp 48599f14-85a8-4757-afce-5b13d34e2dcb))
    (fp_line (start -0.227064 0.735) (end 0.227064 0.735)
      (stroke (width 0.12) (type solid)) (layer "F.SilkS") (tstamp 21f17ac9-34d3-47c8-9503-2bf3d0f45725))
    (fp_line (start -1.68 -0.95) (end 1.68 -0.95)
      (stroke (width 0.05) (type solid)) (layer "F.CrtYd") (tstamp b3d46396-3c8e-4f49-bbe8-1916793d30df))
    (fp_line (start -1.68 0.95) (end -1.68 -0.95)
      (stroke (width 0.05) (type solid)) (layer "F.CrtYd") (tstamp f1b2c04d-8226-43db-b5ab-909b056e5d13))
    (fp_line (start 1.68 -0.95) (end 1.68 0.95)
      (stroke (width 0.05) (type solid)) (layer "F.CrtYd") (tstamp 023975d5-caec-4afc-a4b8-6847e96ca765))
    (fp_line (start 1.68 0.95) (end -1.68 0.95)
      (stroke (width 0.05) (type solid)) (layer "F.CrtYd") (tstamp e5286009-6e4d-4c2e-8c01-b592695557a6))
    (fp_line (start -1 -0.625) (end 1 -0.625)
      (stroke (width 0.1) (type solid)) (layer "F.Fab") (tstamp 7e2c0104-4397-436b-8378-27489bda6a9e))
    (fp_line (start -1 0.625) (end -1 -0.625)
      (stroke (width 0.1) (type solid)) (layer "F.Fab") (tstamp b3ea38f9-a598-4d74-9354-d65c5e651a24))
    (fp_line (start 1 -0.625) (end 1 0.625)
      (stroke (width 0.1) (type solid)) (layer "F.Fab") (tstamp eb2df521-7c96-4da4-a13d-d0c480e28226))
    (fp_line (start 1 0.625) (end -1 0.625)
      (stroke (width 0.1) (type solid)) (layer "F.Fab") (tstamp 6abff062-1212-4d00-a6b9-8dff26653966))
    (pad "1" smd roundrect (at -0.9125 0) (size 1.025 1.4) (layers "F.Cu" "F.Paste" "F.Mask") (roundrect_rratio 0.243902)
      (net 36 "INC2_IN") (pintype "passive") (tstamp f826df8b-c183-4b9a-8868-10081a9dd681))
    (pad "2" smd roundrect (at 0.9125 0) (size 1.025 1.4) (layers "F.Cu" "F.Paste" "F.Mask") (roundrect_rratio 0.243902)
      (net 34 "Net-(C3-Pad1)") (pintype "passive") (tstamp 8d13267b-decc-432d-a431-35f3dfefefe4))
    (model "${KICAD6_3DMODEL_DIR}/Resistor_SMD.3dshapes/R_0805_2012Metric.wrl"
      (offset (xyz 0 0 0))
      (scale (xyz 1 1 1))
      (rotate (xyz 0 0 0))
    )
  )

  (footprint "Resistor_SMD:R_0805_2012Metric" (layer "F.Cu")
    (tstamp 5c4450e9-cae8-4285-8a32-1a9cd94a84dc)
    (at 118.84 55.03)
    (descr "Resistor SMD 0805 (2012 Metric), square (rectangular) end terminal, IPC_7351 nominal, (Body size source: IPC-SM-782 page 72, https://www.pcb-3d.com/wordpress/wp-content/uploads/ipc-sm-782a_amendment_1_and_2.pdf), generated with kicad-footprint-generator")
    (tags "resistor")
    (property "Sheetfile" "mainboard.kicad_sch")
    (property "Sheetname" "")
    (property "ki_description" "Resistor")
    (property "ki_keywords" "R res resistor")
    (path "/905d936b-e6ca-4af4-8fd3-1e9db936b107")
    (attr smd)
    (fp_text reference "R1" (at 0 -1.65) (layer "F.SilkS")
        (effects (font (size 1 1) (thickness 0.15)))
      (tstamp 99020c5f-9f1f-44ba-8b9a-30d239c8dd8a)
    )
    (fp_text value "R" (at 0 1.65) (layer "F.Fab")
        (effects (font (size 1 1) (thickness 0.15)))
      (tstamp 5d252a4e-4f83-4eb3-ade8-af16b6ca6373)
    )
    (fp_text user "${REFERENCE}" (at 0 0) (layer "F.Fab")
        (effects (font (size 0.5 0.5) (thickness 0.08)))
      (tstamp 8f4d0416-e2a0-4102-a2ae-fc503c76e9cc)
    )
    (fp_line (start -0.227064 -0.735) (end 0.227064 -0.735)
      (stroke (width 0.12) (type solid)) (layer "F.SilkS") (tstamp 64c13a7e-5c16-4839-b7d9-4dd2996a252f))
    (fp_line (start -0.227064 0.735) (end 0.227064 0.735)
      (stroke (width 0.12) (type solid)) (layer "F.SilkS") (tstamp a22d3e6b-dd4f-43dd-86a2-2d5854f6e6d9))
    (fp_line (start -1.68 -0.95) (end 1.68 -0.95)
      (stroke (width 0.05) (type solid)) (layer "F.CrtYd") (tstamp d9afc942-7654-49b3-bf36-560395ac4c5e))
    (fp_line (start -1.68 0.95) (end -1.68 -0.95)
      (stroke (width 0.05) (type solid)) (layer "F.CrtYd") (tstamp cdb1d167-18a7-41c6-84a4-6d2027a5a9b5))
    (fp_line (start 1.68 -0.95) (end 1.68 0.95)
      (stroke (width 0.05) (type solid)) (layer "F.CrtYd") (tstamp 34d28e88-c5ef-40bd-84f2-6d05dfc04b0c))
    (fp_line (start 1.68 0.95) (end -1.68 0.95)
      (stroke (width 0.05) (type solid)) (layer "F.CrtYd") (tstamp e326b415-76b3-49b0-b7e9-11ce1e59cc54))
    (fp_line (start -1 -0.625) (end 1 -0.625)
      (stroke (width 0.1) (type solid)) (layer "F.Fab") (tstamp 2ea30c14-23e8-4d76-9448-a3b9935ee7d8))
    (fp_line (start -1 0.625) (end -1 -0.625)
      (stroke (width 0.1) (type solid)) (layer "F.Fab") (tstamp 21037971-a365-4921-9893-94f72e90708e))
    (fp_line (start 1 -0.625) (end 1 0.625)
      (stroke (width 0.1) (type solid)) (layer "F.Fab") (tstamp 79221de8-c0c2-4efa-8bf7-447ea7c7eb71))
    (fp_line (start 1 0.625) (end -1 0.625)
      (stroke (width 0.1) (type solid)) (layer "F.Fab") (tstamp 5634d53a-be64-4fb0-8b66-06465827f034))
    (pad "1" smd roundrect (at -0.9125 0) (size 1.025 1.4) (layers "F.Cu" "F.Paste" "F.Mask") (roundrect_rratio 0.243902)
      (net 1 "+3V3") (pintype "passive") (tstamp cea38335-3584-4e04-899f-6681516cb30a))
    (pad "2" smd roundrect (at 0.9125 0) (size 1.025 1.4) (layers "F.Cu" "F.Paste" "F.Mask") (roundrect_rratio 0.243902)
      (net 3 "SDA1") (pintype "passive") (tstamp c1f86540-5177-4256-bf2a-d82a11ed6a00))
    (model "${KICAD6_3DMODEL_DIR}/Resistor_SMD.3dshapes/R_0805_2012Metric.wrl"
      (offset (xyz 0 0 0))
      (scale (xyz 1 1 1))
      (rotate (xyz 0 0 0))
    )
  )

  (footprint "Resistor_SMD:R_0805_2012Metric" (layer "F.Cu")
    (tstamp 6427d4dc-7b9e-4646-b7c2-41d4d187e029)
    (at 135.89 99.06)
    (descr "Resistor SMD 0805 (2012 Metric), square (rectangular) end terminal, IPC_7351 nominal, (Body size source: IPC-SM-782 page 72, https://www.pcb-3d.com/wordpress/wp-content/uploads/ipc-sm-782a_amendment_1_and_2.pdf), generated with kicad-footprint-generator")
    (tags "resistor")
    (property "Sheetfile" "mainboard.kicad_sch")
    (property "Sheetname" "")
    (property "ki_description" "Resistor")
    (property "ki_keywords" "R res resistor")
    (path "/470f4b6f-76b2-4acf-8b2a-aab673570652")
    (attr smd)
    (fp_text reference "R9" (at 0 -1.65) (layer "F.SilkS")
        (effects (font (size 1 1) (thickness 0.15)))
      (tstamp f10a4ec5-d863-4a02-bcf6-4d0870f15bd7)
    )
    (fp_text value "10k" (at 0 1.65) (layer "F.Fab")
        (effects (font (size 1 1) (thickness 0.15)))
      (tstamp d8d17fce-639b-4161-b6a2-ceb24cb7989d)
    )
    (fp_text user "${REFERENCE}" (at 0 0) (layer "F.Fab")
        (effects (font (size 0.5 0.5) (thickness 0.08)))
      (tstamp 5af4368e-fdb3-439c-aedb-89a7d44881b8)
    )
    (fp_line (start -0.227064 -0.735) (end 0.227064 -0.735)
      (stroke (width 0.12) (type solid)) (layer "F.SilkS") (tstamp 24edce11-41b9-4647-a7dd-0bdff38e88e9))
    (fp_line (start -0.227064 0.735) (end 0.227064 0.735)
      (stroke (width 0.12) (type solid)) (layer "F.SilkS") (tstamp ccbc3023-e76d-46be-a1de-fda5187bd984))
    (fp_line (start -1.68 -0.95) (end 1.68 -0.95)
      (stroke (width 0.05) (type solid)) (layer "F.CrtYd") (tstamp 97fd156a-2480-47a8-bd85-6c18f3f92991))
    (fp_line (start -1.68 0.95) (end -1.68 -0.95)
      (stroke (width 0.05) (type solid)) (layer "F.CrtYd") (tstamp 8596103b-1b05-4204-800f-9b7ff8648a66))
    (fp_line (start 1.68 -0.95) (end 1.68 0.95)
      (stroke (width 0.05) (type solid)) (layer "F.CrtYd") (tstamp 8fa46a59-f74f-43a6-868c-dd1614e4de75))
    (fp_line (start 1.68 0.95) (end -1.68 0.95)
      (stroke (width 0.05) (type solid)) (layer "F.CrtYd") (tstamp 48f787f9-dbeb-48e7-a970-44048f0230b4))
    (fp_line (start -1 -0.625) (end 1 -0.625)
      (stroke (width 0.1) (type solid)) (layer "F.Fab") (tstamp c0532811-31dc-4324-be3b-6a97573c9804))
    (fp_line (start -1 0.625) (end -1 -0.625)
      (stroke (width 0.1) (type solid)) (layer "F.Fab") (tstamp 29a6feaf-252a-4874-953a-2d2245310fc6))
    (fp_line (start 1 -0.625) (end 1 0.625)
      (stroke (width 0.1) (type solid)) (layer "F.Fab") (tstamp 7ee27ada-f1a8-4c43-b36e-44bb8f6ddd71))
    (fp_line (start 1 0.625) (end -1 0.625)
      (stroke (width 0.1) (type solid)) (layer "F.Fab") (tstamp f7e80492-1af1-473a-9bfd-8b1ecbe1ad0d))
    (pad "1" smd roundrect (at -0.9125 0) (size 1.025 1.4) (layers "F.Cu" "F.Paste" "F.Mask") (roundrect_rratio 0.243902)
      (net 35 "INC1_IN") (pintype "passive") (tstamp a01fdd16-609c-4d6b-a4e9-bb081ffcc2c3))
    (pad "2" smd roundrect (at 0.9125 0) (size 1.025 1.4) (layers "F.Cu" "F.Paste" "F.Mask") (roundrect_rratio 0.243902)
      (net 33 "Net-(C2-Pad1)") (pintype "passive") (tstamp 89f5509a-9191-4419-a6c5-386e6bced9b5))
    (model "${KICAD6_3DMODEL_DIR}/Resistor_SMD.3dshapes/R_0805_2012Metric.wrl"
      (offset (xyz 0 0 0))
      (scale (xyz 1 1 1))
      (rotate (xyz 0 0 0))
    )
  )

  (footprint "Resistor_SMD:R_0805_2012Metric" (layer "F.Cu")
    (tstamp 659e95c5-954b-4bb3-a35d-97dd76d7b681)
    (at 135.89 101.6 180)
    (descr "Resistor SMD 0805 (2012 Metric), square (rectangular) end terminal, IPC_7351 nominal, (Body size source: IPC-SM-782 page 72, https://www.pcb-3d.com/wordpress/wp-content/uploads/ipc-sm-782a_amendment_1_and_2.pdf), generated with kicad-footprint-generator")
    (tags "resistor")
    (property "Sheetfile" "mainboard.kicad_sch")
    (property "Sheetname" "")
    (property "ki_description" "Resistor")
    (property "ki_keywords" "R res resistor")
    (path "/008923c0-6b8e-44eb-9b87-5765ea2e432f")
    (attr smd)
    (fp_text reference "R7" (at 0 -1.65) (layer "F.SilkS")
        (effects (font (size 1 1) (thickness 0.15)))
      (tstamp f31b538b-312b-4ae8-9fdf-b1b7743f8898)
    )
    (fp_text value "10k" (at 0 1.65) (layer "F.Fab")
        (effects (font (size 1 1) (thickness 0.15)))
      (tstamp 0c39e50b-6eb8-4886-a99c-ec3de39085bb)
    )
    (fp_text user "${REFERENCE}" (at 0 0) (layer "F.Fab")
        (effects (font (size 0.5 0.5) (thickness 0.08)))
      (tstamp 40ebc602-a003-4de1-8b2a-7619367bde1a)
    )
    (fp_line (start -0.227064 -0.735) (end 0.227064 -0.735)
      (stroke (width 0.12) (type solid)) (layer "F.SilkS") (tstamp 5ec5565e-58d6-4889-97f0-3bff2c0eb4b4))
    (fp_line (start -0.227064 0.735) (end 0.227064 0.735)
      (stroke (width 0.12) (type solid)) (layer "F.SilkS") (tstamp 103464f2-9801-4513-9a63-b401ce21081a))
    (fp_line (start -1.68 -0.95) (end 1.68 -0.95)
      (stroke (width 0.05) (type solid)) (layer "F.CrtYd") (tstamp d33e2e61-85c2-4132-a7ef-44a4d4aed415))
    (fp_line (start -1.68 0.95) (end -1.68 -0.95)
      (stroke (width 0.05) (type solid)) (layer "F.CrtYd") (tstamp dcd1ba1c-25cd-4920-b800-484fcfe24b9a))
    (fp_line (start 1.68 -0.95) (end 1.68 0.95)
      (stroke (width 0.05) (type solid)) (layer "F.CrtYd") (tstamp ae95f55c-fd65-4a95-9563-d85fb9ce3cf6))
    (fp_line (start 1.68 0.95) (end -1.68 0.95)
      (stroke (width 0.05) (type solid)) (layer "F.CrtYd") (tstamp 3adabc00-ba32-4a65-85b0-39f65e509abd))
    (fp_line (start -1 -0.625) (end 1 -0.625)
      (stroke (width 0.1) (type solid)) (layer "F.Fab") (tstamp 73558a03-0a61-4c8d-9207-11229af8651c))
    (fp_line (start -1 0.625) (end -1 -0.625)
      (stroke (width 0.1) (type solid)) (layer "F.Fab") (tstamp 04cf5e82-e057-4889-b5b7-9d34f8ccb0e3))
    (fp_line (start 1 -0.625) (end 1 0.625)
      (stroke (width 0.1) (type solid)) (layer "F.Fab") (tstamp 30da2ddb-9d62-4eac-935f-dbd18582fcd4))
    (fp_line (start 1 0.625) (end -1 0.625)
      (stroke (width 0.1) (type solid)) (layer "F.Fab") (tstamp 51218f99-32da-49f2-aab9-73b57644c950))
    (pad "1" smd roundrect (at -0.9125 0 180) (size 1.025 1.4) (layers "F.Cu" "F.Paste" "F.Mask") (roundrect_rratio 0.243902)
      (net 33 "Net-(C2-Pad1)") (pintype "passive") (tstamp 351f9f96-0357-42ab-834e-eb0bce16287d))
    (pad "2" smd roundrect (at 0.9125 0 180) (size 1.025 1.4) (layers "F.Cu" "F.Paste" "F.Mask") (roundrect_rratio 0.243902)
      (net 1 "+3V3") (pintype "passive") (tstamp 44385318-4641-462c-836d-d14ffebd1157))
    (model "${KICAD6_3DMODEL_DIR}/Resistor_SMD.3dshapes/R_0805_2012Metric.wrl"
      (offset (xyz 0 0 0))
      (scale (xyz 1 1 1))
      (rotate (xyz 0 0 0))
    )
  )

  (footprint "Capacitor_SMD:C_0805_2012Metric" (layer "F.Cu")
    (tstamp 6a197985-1470-4c52-a6dd-70341c115a47)
    (at 135.89 91.44 180)
    (descr "Capacitor SMD 0805 (2012 Metric), square (rectangular) end terminal, IPC_7351 nominal, (Body size source: IPC-SM-782 page 76, https://www.pcb-3d.com/wordpress/wp-content/uploads/ipc-sm-782a_amendment_1_and_2.pdf, https://docs.google.com/spreadsheets/d/1BsfQQcO9C6DZCsRaXUlFlo91Tg2WpOkGARC1WS5S8t0/edit?usp=sharing), generated with kicad-footprint-generator")
    (tags "capacitor")
    (property "Sheetfile" "mainboard.kicad_sch")
    (property "Sheetname" "")
    (property "ki_description" "Unpolarized capacitor")
    (property "ki_keywords" "cap capacitor")
    (path "/719b4d4b-f987-4d41-8c1d-c331a9935dfd")
    (attr smd)
    (fp_text reference "C3" (at 0 -1.68) (layer "F.SilkS")
        (effects (font (size 1 1) (thickness 0.15)))
      (tstamp 7e3665dc-ca76-43e7-91f8-f56c071b5e73)
    )
    (fp_text value "100nF" (at 0 1.68) (layer "F.Fab")
        (effects (font (size 1 1) (thickness 0.15)))
      (tstamp b5e8746c-baed-41a5-bc2a-168152a71b6e)
    )
    (fp_text user "${REFERENCE}" (at 0 0) (layer "F.Fab")
        (effects (font (size 0.5 0.5) (thickness 0.08)))
      (tstamp 702d45d7-4199-459d-9d0e-f3dbc47ee4cf)
    )
    (fp_line (start -0.261252 -0.735) (end 0.261252 -0.735)
      (stroke (width 0.12) (type solid)) (layer "F.SilkS") (tstamp ad37a43b-72b4-48a0-bef4-6576e2122d9a))
    (fp_line (start -0.261252 0.735) (end 0.261252 0.735)
      (stroke (width 0.12) (type solid)) (layer "F.SilkS") (tstamp e7e18f6c-4237-4144-abce-be8af2f517e7))
    (fp_line (start -1.7 -0.98) (end 1.7 -0.98)
      (stroke (width 0.05) (type solid)) (layer "F.CrtYd") (tstamp ba888a70-3ab2-4e90-abb9-f2b7fd1a0f36))
    (fp_line (start -1.7 0.98) (end -1.7 -0.98)
      (stroke (width 0.05) (type solid)) (layer "F.CrtYd") (tstamp 8968637c-6efa-4aec-8076-f2c1a485cf0e))
    (fp_line (start 1.7 -0.98) (end 1.7 0.98)
      (stroke (width 0.05) (type solid)) (layer "F.CrtYd") (tstamp fb0d4fc9-8de2-48b5-92dc-22b8d5170de1))
    (fp_line (start 1.7 0.98) (end -1.7 0.98)
      (stroke (width 0.05) (type solid)) (layer "F.CrtYd") (tstamp d44c0e78-35ef-460a-8276-4e456540d3cc))
    (fp_line (start -1 -0.625) (end 1 -0.625)
      (stroke (width 0.1) (type solid)) (layer "F.Fab") (tstamp f1e7f02a-fde6-41dd-917f-1f20c36cd12a))
    (fp_line (start -1 0.625) (end -1 -0.625)
      (stroke (width 0.1) (type solid)) (layer "F.Fab") (tstamp a88c22f4-64fd-4569-bea6-ad002cbf04a2))
    (fp_line (start 1 -0.625) (end 1 0.625)
      (stroke (width 0.1) (type solid)) (layer "F.Fab") (tstamp 84cc02b2-7a85-48d3-b04d-86f6136295e5))
    (fp_line (start 1 0.625) (end -1 0.625)
      (stroke (width 0.1) (type solid)) (layer "F.Fab") (tstamp 21e3dd4b-78fc-4859-af89-53bae56e79da))
    (pad "1" smd roundrect (at -0.95 0 180) (size 1 1.45) (layers "F.Cu" "F.Paste" "F.Mask") (roundrect_rratio 0.25)
      (net 34 "Net-(C3-Pad1)") (pintype "passive") (tstamp 958c9cad-a347-4849-ac90-11caa67c1deb))
    (pad "2" smd roundrect (at 0.95 0 180) (size 1 1.45) (layers "F.Cu" "F.Paste" "F.Mask") (roundrect_rratio 0.25)
      (net 5 "GND") (pintype "passive") (tstamp e85da80c-f85b-47e8-8865-84e00ef391b9))
    (model "${KICAD6_3DMODEL_DIR}/Capacitor_SMD.3dshapes/C_0805_2012Metric.wrl"
      (offset (xyz 0 0 0))
      (scale (xyz 1 1 1))
      (rotate (xyz 0 0 0))
    )
  )

  (footprint "Resistor_SMD:R_0805_2012Metric" (layer "F.Cu")
    (tstamp 6fa535f8-b957-4c38-a778-c09aa6f4125c)
    (at 135.89 86.36 180)
    (descr "Resistor SMD 0805 (2012 Metric), square (rectangular) end terminal, IPC_7351 nominal, (Body size source: IPC-SM-782 page 72, https://www.pcb-3d.com/wordpress/wp-content/uploads/ipc-sm-782a_amendment_1_and_2.pdf), generated with kicad-footprint-generator")
    (tags "resistor")
    (property "Sheetfile" "mainboard.kicad_sch")
    (property "Sheetname" "")
    (property "ki_description" "Resistor")
    (property "ki_keywords" "R res resistor")
    (path "/7c98d14e-8fad-4b26-be18-7bc5c8ddd13f")
    (attr smd)
    (fp_text reference "R8" (at 0 -1.65) (layer "F.SilkS")
        (effects (font (size 1 1) (thickness 0.15)))
      (tstamp 1dad858a-cea4-4c41-a979-c8ee43cae24a)
    )
    (fp_text value "10k" (at 0 1.65) (layer "F.Fab")
        (effects (font (size 1 1) (thickness 0.15)))
      (tstamp b5d88ea0-a245-452f-93cb-a6c2b5a62e38)
    )
    (fp_text user "${REFERENCE}" (at 0 0) (layer "F.Fab")
        (effects (font (size 0.5 0.5) (thickness 0.08)))
      (tstamp 280d016b-fe7c-455a-9c8d-2c23a1e87063)
    )
    (fp_line (start -0.227064 -0.735) (end 0.227064 -0.735)
      (stroke (width 0.12) (type solid)) (layer "F.SilkS") (tstamp 8c7b1274-d69b-4a01-8436-21dabeacc86a))
    (fp_line (start -0.227064 0.735) (end 0.227064 0.735)
      (stroke (width 0.12) (type solid)) (layer "F.SilkS") (tstamp 0d1768a7-73b7-46fd-ab37-9c630920b278))
    (fp_line (start -1.68 -0.95) (end 1.68 -0.95)
      (stroke (width 0.05) (type solid)) (layer "F.CrtYd") (tstamp 28c6d1f3-6155-42b4-bec3-a8d140c1e258))
    (fp_line (start -1.68 0.95) (end -1.68 -0.95)
      (stroke (width 0.05) (type solid)) (layer "F.CrtYd") (tstamp ec0d8e3e-d726-4bee-865f-eda7cef7fcc1))
    (fp_line (start 1.68 -0.95) (end 1.68 0.95)
      (stroke (width 0.05) (type solid)) (layer "F.CrtYd") (tstamp d9cf13f6-94f3-4953-a503-cdd1c4180296))
    (fp_line (start 1.68 0.95) (end -1.68 0.95)
      (stroke (width 0.05) (type solid)) (layer "F.CrtYd") (tstamp 53724f22-605e-4a65-8d52-20a55dddd0c1))
    (fp_line (start -1 -0.625) (end 1 -0.625)
      (stroke (width 0.1) (type solid)) (layer "F.Fab") (tstamp 2cbe88cd-0bb5-4ce5-8a37-9d59e7fff8b3))
    (fp_line (start -1 0.625) (end -1 -0.625)
      (stroke (width 0.1) (type solid)) (layer "F.Fab") (tstamp f9f81201-8c92-4560-a3f6-2a9571f1e42f))
    (fp_line (start 1 -0.625) (end 1 0.625)
      (stroke (width 0.1) (type solid)) (layer "F.Fab") (tstamp 734259b2-27ca-43fc-a58d-6bb8618141bc))
    (fp_line (start 1 0.625) (end -1 0.625)
      (stroke (width 0.1) (type solid)) (layer "F.Fab") (tstamp da58cb81-7861-492f-994c-52f7a288de8a))
    (pad "1" smd roundrect (at -0.9125 0 180) (size 1.025 1.4) (layers "F.Cu" "F.Paste" "F.Mask") (roundrect_rratio 0.243902)
      (net 34 "Net-(C3-Pad1)") (pintype "passive") (tstamp f105ffed-6c59-4a1b-9912-1920b3f50fe9))
    (pad "2" smd roundrect (at 0.9125 0 180) (size 1.025 1.4) (layers "F.Cu" "F.Paste" "F.Mask") (roundrect_rratio 0.243902)
      (net 1 "+3V3") (pintype "passive") (tstamp 932355fd-5565-4dc6-ab7d-c76f837d1bbe))
    (model "${KICAD6_3DMODEL_DIR}/Resistor_SMD.3dshapes/R_0805_2012Metric.wrl"
      (offset (xyz 0 0 0))
      (scale (xyz 1 1 1))
      (rotate (xyz 0 0 0))
    )
  )

  (footprint "Capacitor_SMD:C_0805_2012Metric" (layer "F.Cu")
    (tstamp 7f00c138-8793-42f7-8b89-2c078b09625d)
    (at 135.89 96.52 180)
    (descr "Capacitor SMD 0805 (2012 Metric), square (rectangular) end terminal, IPC_7351 nominal, (Body size source: IPC-SM-782 page 76, https://www.pcb-3d.com/wordpress/wp-content/uploads/ipc-sm-782a_amendment_1_and_2.pdf, https://docs.google.com/spreadsheets/d/1BsfQQcO9C6DZCsRaXUlFlo91Tg2WpOkGARC1WS5S8t0/edit?usp=sharing), generated with kicad-footprint-generator")
    (tags "capacitor")
    (property "Sheetfile" "mainboard.kicad_sch")
    (property "Sheetname" "")
    (property "ki_description" "Unpolarized capacitor")
    (property "ki_keywords" "cap capacitor")
    (path "/5e0371d6-2796-4175-b622-29f9a3cef28e")
    (attr smd)
    (fp_text reference "C2" (at 0 -1.68) (layer "F.SilkS")
        (effects (font (size 1 1) (thickness 0.15)))
      (tstamp 8d987d40-0ccf-4da3-b437-f49f48380387)
    )
    (fp_text value "100nF" (at 0 1.68) (layer "F.Fab")
        (effects (font (size 1 1) (thickness 0.15)))
      (tstamp 057805d5-1959-479e-b39a-78cc941e4218)
    )
    (fp_text user "${REFERENCE}" (at 0 0) (layer "F.Fab")
        (effects (font (size 0.5 0.5) (thickness 0.08)))
      (tstamp fc225fa9-759a-4d84-b02a-16635595546c)
    )
    (fp_line (start -0.261252 -0.735) (end 0.261252 -0.735)
      (stroke (width 0.12) (type solid)) (layer "F.SilkS") (tstamp 9bfb22d8-97a2-408c-a85a-703dda5a0cf6))
    (fp_line (start -0.261252 0.735) (end 0.261252 0.735)
      (stroke (width 0.12) (type solid)) (layer "F.SilkS") (tstamp 1736e728-d7ae-436d-93a5-d95a633ea143))
    (fp_line (start -1.7 -0.98) (end 1.7 -0.98)
      (stroke (width 0.05) (type solid)) (layer "F.CrtYd") (tstamp 3bd42454-619d-468d-a2ff-636d0eb337dc))
    (fp_line (start -1.7 0.98) (end -1.7 -0.98)
      (stroke (width 0.05) (type solid)) (layer "F.CrtYd") (tstamp 62805644-3d15-485d-8423-c48132343c75))
    (fp_line (start 1.7 -0.98) (end 1.7 0.98)
      (stroke (width 0.05) (type solid)) (layer "F.CrtYd") (tstamp 8154aed9-32ef-4326-b25f-ff949ccaa636))
    (fp_line (start 1.7 0.98) (end -1.7 0.98)
      (stroke (width 0.05) (type solid)) (layer "F.CrtYd") (tstamp e23933c1-042e-4e1e-a2bd-9b1bc0a1f965))
    (fp_line (start -1 -0.625) (end 1 -0.625)
      (stroke (width 0.1) (type solid)) (layer "F.Fab") (tstamp b145d949-3e28-4758-aba5-677e08d102ae))
    (fp_line (start -1 0.625) (end -1 -0.625)
      (stroke (width 0.1) (type solid)) (layer "F.Fab") (tstamp 0f675541-f253-4aa3-8d4b-eceec9e85b01))
    (fp_line (start 1 -0.625) (end 1 0.625)
      (stroke (width 0.1) (type solid)) (layer "F.Fab") (tstamp fe4068dd-8278-4962-82ec-2f0bbb4127cd))
    (fp_line (start 1 0.625) (end -1 0.625)
      (stroke (width 0.1) (type solid)) (layer "F.Fab") (tstamp 9378a1e0-72a7-4d72-bddc-180050d7a3d7))
    (pad "1" smd roundrect (at -0.95 0 180) (size 1 1.45) (layers "F.Cu" "F.Paste" "F.Mask") (roundrect_rratio 0.25)
      (net 33 "Net-(C2-Pad1)") (pintype "passive") (tstamp 3bc2d01e-6e5b-4802-99ca-285cf41f0d72))
    (pad "2" smd roundrect (at 0.95 0 180) (size 1 1.45) (layers "F.Cu" "F.Paste" "F.Mask") (roundrect_rratio 0.25)
      (net 5 "GND") (pintype "passive") (tstamp a7d596b2-4c7f-4aaa-9c29-91cb0024ff37))
    (model "${KICAD6_3DMODEL_DIR}/Capacitor_SMD.3dshapes/C_0805_2012Metric.wrl"
      (offset (xyz 0 0 0))
      (scale (xyz 1 1 1))
      (rotate (xyz 0 0 0))
    )
  )

  (footprint "Resistor_SMD:R_0805_2012Metric" (layer "F.Cu")
    (tstamp 9952e84c-b023-43fb-bcf8-2dba6e62e256)
    (at 157.48 90.17 90)
    (descr "Resistor SMD 0805 (2012 Metric), square (rectangular) end terminal, IPC_7351 nominal, (Body size source: IPC-SM-782 page 72, https://www.pcb-3d.com/wordpress/wp-content/uploads/ipc-sm-782a_amendment_1_and_2.pdf), generated with kicad-footprint-generator")
    (tags "resistor")
    (property "Sheetfile" "mainboard.kicad_sch")
    (property "Sheetname" "")
    (property "ki_description" "Resistor")
    (property "ki_keywords" "R res resistor")
    (path "/4c9cea6c-a198-4916-9dca-8b99d8c5a8b2")
    (attr smd)
    (fp_text reference "R6" (at 0 -1.65 90) (layer "F.SilkS")
        (effects (font (size 1 1) (thickness 0.15)))
      (tstamp 0ef88710-fcf1-473c-a6ca-a30dd1c55c3a)
    )
    (fp_text value "10k" (at 0 1.65 90) (layer "F.Fab")
        (effects (font (size 1 1) (thickness 0.15)))
      (tstamp 7a80580f-f739-42e7-bf75-5bde444ddb54)
    )
    (fp_text user "${REFERENCE}" (at 0 0 90) (layer "F.Fab")
        (effects (font (size 0.5 0.5) (thickness 0.08)))
      (tstamp a533925a-40a7-4c94-a89b-9db99fe79d26)
    )
    (fp_line (start -0.227064 -0.735) (end 0.227064 -0.735)
      (stroke (width 0.12) (type solid)) (layer "F.SilkS") (tstamp 627df660-9a41-43a5-936e-fb6dc816e2ec))
    (fp_line (start -0.227064 0.735) (end 0.227064 0.735)
      (stroke (width 0.12) (type solid)) (layer "F.SilkS") (tstamp 1e5992a0-c3ff-4ca4-83bb-df0946e55d97))
    (fp_line (start -1.68 -0.95) (end 1.68 -0.95)
      (stroke (width 0.05) (type solid)) (layer "F.CrtYd") (tstamp f88a7592-f360-4455-a6c7-fed7c0d38a69))
    (fp_line (start -1.68 0.95) (end -1.68 -0.95)
      (stroke (width 0.05) (type solid)) (layer "F.CrtYd") (tstamp f5b259a0-3e90-4445-9e4f-0d2b8997988c))
    (fp_line (start 1.68 -0.95) (end 1.68 0.95)
      (stroke (width 0.05) (type solid)) (layer "F.CrtYd") (tstamp 4ff5cefa-e69f-459c-bcd7-1c1fe280a42c))
    (fp_line (start 1.68 0.95) (end -1.68 0.95)
      (stroke (width 0.05) (type solid)) (layer "F.CrtYd") (tstamp 874ff5e3-c436-41ff-8add-d914f40e8733))
    (fp_line (start -1 -0.625) (end 1 -0.625)
      (stroke (width 0.1) (type solid)) (layer "F.Fab") (tstamp 510feef9-cb70-46d2-ac40-b7ce988ce926))
    (fp_line (start -1 0.625) (end -1 -0.625)
      (stroke (width 0.1) (type solid)) (layer "F.Fab") (tstamp 4450a517-c9c9-46bd-98ab-076df8a9a0d9))
    (fp_line (start 1 -0.625) (end 1 0.625)
      (stroke (width 0.1) (type solid)) (layer "F.Fab") (tstamp 496e8515-1e6b-49e1-b635-4bb94ec31372))
    (fp_line (start 1 0.625) (end -1 0.625)
      (stroke (width 0.1) (type solid)) (layer "F.Fab") (tstamp 5c94bcd6-5db8-4121-83ca-a654776322ad))
    (pad "1" smd roundrect (at -0.9125 0 90) (size 1.025 1.4) (layers "F.Cu" "F.Paste" "F.Mask") (roundrect_rratio 0.243902)
      (net 32 "Net-(C1-Pad1)") (pintype "passive") (tstamp 34fa4393-2d94-470f-b8a0-07626caedf08))
    (pad "2" smd roundrect (at 0.9125 0 90) (size 1.025 1.4) (layers "F.Cu" "F.Paste" "F.Mask") (roundrect_rratio 0.243902)
      (net 1 "+3V3") (pintype "passive") (tstamp 63624ffd-608b-4b21-826e-1882aca4d51d))
    (model "${KICAD6_3DMODEL_DIR}/Resistor_SMD.3dshapes/R_0805_2012Metric.wrl"
      (offset (xyz 0 0 0))
      (scale (xyz 1 1 1))
      (rotate (xyz 0 0 0))
    )
  )

  (footprint "Package_TO_SOT_SMD:SOT-23" (layer "F.Cu")
    (tstamp d6fa79a3-15ad-400f-a715-a8a6e5df3ba8)
    (at 119.08 72.03)
    (descr "SOT, 3 Pin (https://www.jedec.org/system/files/docs/to-236h.pdf variant AB), generated with kicad-footprint-generator ipc_gullwing_generator.py")
    (tags "SOT TO_SOT_SMD")
    (property "Sheetfile" "mainboard.kicad_sch")
    (property "Sheetname" "")
    (property "ki_description" "50V Vds, 0.22A Id, N-Channel MOSFET, SOT-23")
    (property "ki_keywords" "N-Channel MOSFET")
    (path "/597065ce-efb0-4902-9dd7-390042a4c5a5")
    (attr smd)
    (fp_text reference "Q2" (at 0 -2.4) (layer "F.SilkS")
        (effects (font (size 1 1) (thickness 0.15)))
      (tstamp cf9075ad-9865-4015-a7a7-e4ea2efd709f)
    )
    (fp_text value "BSS138" (at 0 2.4) (layer "F.Fab")
        (effects (font (size 1 1) (thickness 0.15)))
      (tstamp e1efa628-2a8d-45b3-a742-89a06781b443)
    )
    (fp_text user "${REFERENCE}" (at 0 0) (layer "F.Fab")
        (effects (font (size 0.32 0.32) (thickness 0.05)))
      (tstamp 5887b7dd-5f54-43de-880b-908f9470591d)
    )
    (fp_line (start 0 -1.56) (end -1.675 -1.56)
      (stroke (width 0.12) (type solid)) (layer "F.SilkS") (tstamp de4a84aa-df68-4aeb-a3d9-832cf441eb87))
    (fp_line (start 0 -1.56) (end 0.65 -1.56)
      (stroke (width 0.12) (type solid)) (layer "F.SilkS") (tstamp c070d5b2-a3a5-4d03-88f0-f7a71f12b1e8))
    (fp_line (start 0 1.56) (end -0.65 1.56)
      (stroke (width 0.12) (type solid)) (layer "F.SilkS") (tstamp 8be76796-e87d-489f-bd2e-f2ea60bf5d58))
    (fp_line (start 0 1.56) (end 0.65 1.56)
      (stroke (width 0.12) (type solid)) (layer "F.SilkS") (tstamp 6154e71b-e05f-431d-9790-45444057d11c))
    (fp_line (start -1.92 -1.7) (end -1.92 1.7)
      (stroke (width 0.05) (type solid)) (layer "F.CrtYd") (tstamp 20f63ace-16cc-4045-b31a-670ed56765d9))
    (fp_line (start -1.92 1.7) (end 1.92 1.7)
      (stroke (width 0.05) (type solid)) (layer "F.CrtYd") (tstamp 09ccfb5f-b443-46f8-8b3a-e7333482565d))
    (fp_line (start 1.92 -1.7) (end -1.92 -1.7)
      (stroke (width 0.05) (type solid)) (layer "F.CrtYd") (tstamp f2db6f3f-340a-48b7-b749-4cb84fb2907a))
    (fp_line (start 1.92 1.7) (end 1.92 -1.7)
      (stroke (width 0.05) (type solid)) (layer "F.CrtYd") (tstamp d2350dac-b7fa-42d5-9407-5369cb9ed50d))
    (fp_line (start -0.65 -1.125) (end -0.325 -1.45)
      (stroke (width 0.1) (type solid)) (layer "F.Fab") (tstamp 719b07e0-9332-420d-9ea3-78af06df83ca))
    (fp_line (start -0.65 1.45) (end -0.65 -1.125)
      (stroke (width 0.1) (type solid)) (layer "F.Fab") (tstamp c67339b3-6485-462d-a277-9d09d858314d))
    (fp_line (start -0.325 -1.45) (end 0.65 -1.45)
      (stroke (width 0.1) (type solid)) (layer "F.Fab") (tstamp 13e6757d-1186-4fbd-b7e7-dc51477427e3))
    (fp_line (start 0.65 -1.45) (end 0.65 1.45)
      (stroke (width 0.1) (type solid)) (layer "F.Fab") (tstamp 2f5b458d-1b3c-49ce-9286-516886c9449b))
    (fp_line (start 0.65 1.45) (end -0.65 1.45)
      (stroke (width 0.1) (type solid)) (layer "F.Fab") (tstamp fd8ee723-8051-4d58-a125-1ac3fbbcaf78))
    (pad "1" smd roundrect (at -0.9375 -0.95) (size 1.475 0.6) (layers "F.Cu" "F.Paste" "F.Mask") (roundrect_rratio 0.25)
      (net 1 "+3V3") (pinfunction "G") (pintype "input") (tstamp 176b600b-496c-4cec-9192-a9d42b6e7f69))
    (pad "2" smd roundrect (at -0.9375 0.95) (size 1.475 0.6) (layers "F.Cu" "F.Paste" "F.Mask") (roundrect_rratio 0.25)
      (net 4 "SCL1") (pinfunction "S") (pintype "passive") (tstamp 1f8e20bb-0158-40da-969c-5661b8936101))
    (pad "3" smd roundrect (at 0.9375 0) (size 1.475 0.6) (layers "F.Cu" "F.Paste" "F.Mask") (roundrect_rratio 0.25)
      (net 30 "Net-(Q2-D)") (pinfunction "D") (pintype "passive") (tstamp d58c47c9-c022-43c9-a99a-21860ac9caa5))
    (model "${KICAD6_3DMODEL_DIR}/Package_TO_SOT_SMD.3dshapes/SOT-23.wrl"
      (offset (xyz 0 0 0))
      (scale (xyz 1 1 1))
      (rotate (xyz 0 0 0))
    )
  )

  (footprint "Rotary_Encoder:RotaryEncoder_Alps_EC11E-Switch_Vertical_H20mm_CircularMountingHoles" (layer "F.Cu")
    (tstamp e07f35f5-af59-4ddf-a632-318d676f80e3)
    (at 140.07 91.48)
    (descr "Alps rotary encoder, EC12E... with switch, vertical shaft, mounting holes with circular drills, http://www.alps.com/prod/info/E/HTML/Encoder/Incremental/EC11/EC11E15204A3.html")
    (tags "rotary encoder")
    (property "Sheetfile" "mainboard.kicad_sch")
    (property "Sheetname" "")
    (property "ki_description" "Rotary encoder, dual channel, incremental quadrate outputs, with switch")
    (property "ki_keywords" "rotary switch encoder switch push button")
    (path "/0b0b1617-187f-42ed-bc14-691a8b70bfc4")
    (attr through_hole)
    (fp_text reference "SW1" (at 2.8 -4.7) (layer "F.SilkS")
        (effects (font (size 1 1) (thickness 0.15)))
      (tstamp 25bf2e95-b91c-47b6-a61c-9c68ec696e82)
    )
    (fp_text value "RotaryEncoder_Switch" (at 7.5 10.4) (layer "F.Fab")
        (effects (font (size 1 1) (thickness 0.15)))
      (tstamp 6346f004-dafc-4f55-bb24-6331d055d7b6)
    )
    (fp_text user "${REFERENCE}" (at 11.1 6.3) (layer "F.Fab")
        (effects (font (size 1 1) (thickness 0.15)))
      (tstamp cfab819d-97c6-4928-a81e-c5d2c2e8f766)
    )
    (fp_line (start -0.3 -1.6) (end 0.3 -1.6)
      (stroke (width 0.12) (type solid)) (layer "F.SilkS") (tstamp aa0fb9aa-32ea-4dca-a7fc-47de628da38b))
    (fp_line (start 0 -1.3) (end -0.3 -1.6)
      (stroke (width 0.12) (type solid)) (layer "F.SilkS") (tstamp b40ba592-0ea8-425d-8b23-5297d9c72951))
    (fp_line (start 0.3 -1.6) (end 0 -1.3)
      (stroke (width 0.12) (type solid)) (layer "F.SilkS") (tstamp 3f20537d-b92f-4b50-8aff-15693a2cb9dc))
    (fp_line (start 1.4 -3.4) (end 1.4 8.4)
      (stroke (width 0.12) (type solid)) (layer "F.SilkS") (tstamp 2d610d7b-8a04-45c7-8225-3d158cf2b4b1))
    (fp_line (start 5.5 -3.4) (end 1.4 -3.4)
      (stroke (width 0.12) (type solid)) (layer "F.SilkS") (tstamp a0c7296f-d28e-4091-8aeb-9f5fec98cf1a))
    (fp_line (start 5.5 8.4) (end 1.4 8.4)
      (stroke (width 0.12) (type solid)) (layer "F.SilkS") (tstamp 3d07551c-6e07-40a9-b1f3-ce0494911ee0))
    (fp_line (start 7 2.5) (end 8 2.5)
      (stroke (width 0.12) (type solid)) (layer "F.SilkS") (tstamp bfaca0e8-ffb8-45df-a6a2-6101af262546))
    (fp_line (start 7.5 2) (end 7.5 3)
      (stroke (width 0.12) (type solid)) (layer "F.SilkS") (tstamp b333d5c9-38a7-468a-80b2-f51337ee9868))
    (fp_line (start 9.5 -3.4) (end 13.6 -3.4)
      (stroke (width 0.12) (type solid)) (layer "F.SilkS") (tstamp d6a75745-e799-4fd1-b3b9-7cccf0d78c64))
    (fp_line (start 13.6 -3.4) (end 13.6 -1)
      (stroke (width 0.12) (type solid)) (layer "F.SilkS") (tstamp 373ce5d9-3a9d-44ef-abe1-019de06f4e8c))
    (fp_line (start 13.6 1.2) (end 13.6 3.8)
      (stroke (width 0.12) (type solid)) (layer "F.SilkS") (tstamp 23d73b8f-8364-476d-b6b4-e8f3af0a7b99))
    (fp_line (start 13.6 6) (end 13.6 8.4)
      (stroke (width 0.12) (type solid)) (layer "F.SilkS") (tstamp a8c668ac-e5d3-4424-9567-94a36eb0e49f))
    (fp_line (start 13.6 8.4) (end 9.5 8.4)
      (stroke (width 0.12) (type solid)) (layer "F.SilkS") (tstamp d7ab5fda-3936-4c44-a3bc-0984cae0a75b))
    (fp_circle (center 7.5 2.5) (end 10.5 2.5)
      (stroke (width 0.12) (type solid)) (fill none) (layer "F.SilkS") (tstamp 12110446-d5b3-4297-a689-4b27d95acc8a))
    (fp_line (start -1.5 -5.2) (end -1.5 10.2)
      (stroke (width 0.05) (type solid)) (layer "F.CrtYd") (tstamp 40fa89cb-54ff-4485-a2bd-e7ec984745dd))
    (fp_line (start -1.5 -5.2) (end 16 -5.2)
      (stroke (width 0.05) (type solid)) (layer "F.CrtYd") (tstamp b7af6956-c650-44f2-ac1c-a6795e2787b4))
    (fp_line (start 16 10.2) (end -1.5 10.2)
      (stroke (width 0.05) (type solid)) (layer "F.CrtYd") (tstamp ad73e2c6-2b35-4e03-a3f3-2c3d9120f00a))
    (fp_line (start 16 10.2) (end 16 -5.2)
      (stroke (width 0.05) (type solid)) (layer "F.CrtYd") (tstamp d4815057-593a-437b-8f32-762c8ad40b8e))
    (fp_line (start 1.5 -2.2) (end 2.5 -3.3)
      (stroke (width 0.12) (type solid)) (layer "F.Fab") (tstamp 3fe520b1-b4af-49c1-bcf7-b2cf22770509))
    (fp_line (start 1.5 8.3) (end 1.5 -2.2)
      (stroke (width 0.12) (type solid)) (layer "F.Fab") (tstamp ee987088-a2b5-47b2-ad61-629abd27836f))
    (fp_line (start 2.5 -3.3) (end 13.5 -3.3)
      (stroke (width 0.12) (type solid)) (layer "F.Fab") (tstamp 5b6919fb-fc1f-4214-9b66-2c30f3eb3c7d))
    (fp_line (start 4.5 2.5) (end 10.5 2.5)
      (stroke (width 0.12) (type solid)) (layer "F.Fab") (tstamp 47f85842-97d5-4e78-ac8c-b3cf333b114b))
    (fp_line (start 7.5 -0.5) (end 7.5 5.5)
      (stroke (width 0.12) (type solid)) (layer "F.Fab") (tstamp 1b188717-d0a3-43b9-927d-4c1f8270e4c3))
    (fp_line (start 13.5 -3.3) (end 13.5 8.3)
      (stroke (width 0.12) (type solid)) (layer "F.Fab") (tstamp 95a6b1db-81ad-4569-bd38-3c37556b47d4))
    (fp_line (start 13.5 8.3) (end 1.5 8.3)
      (stroke (width 0.12) (type solid)) (layer "F.Fab") (tstamp 54f3a720-6cb9-4294-93dc-f6acbb747311))
    (fp_circle (center 7.5 2.5) (end 10.5 2.5)
      (stroke (width 0.12) (type solid)) (fill none) (layer "F.Fab") (tstamp b2bd7cf5-9520-4769-bf50-3b55ea903596))
    (pad "A" thru_hole rect (at 0 0) (size 2 2) (drill 1) (layers "*.Cu" "*.Mask")
      (net 34 "Net-(C3-Pad1)") (pinfunction "A") (pintype "passive") (tstamp 04bf5e6a-ea86-4248-9631-b824ba3cd274))
    (pad "B" thru_hole circle (at 0 5) (size 2 2) (drill 1) (layers "*.Cu" "*.Mask")
      (net 33 "Net-(C2-Pad1)") (pinfunction "B") (pintype "passive") (tstamp 7b0c3d3d-bba7-4696-b6df-05bbe64b9d8c))
    (pad "C" thru_hole circle (at 0 2.5) (size 2 2) (drill 1) (layers "*.Cu" "*.Mask")
      (net 5 "GND") (pinfunction "C") (pintype "passive") (tstamp 3fff4004-f9c1-4512-9870-93398f2ff2dc))
    (pad "MP" thru_hole circle (at 7.5 -3.1) (size 3.2 3.2) (drill 2.6) (layers "*.Cu" "*.Mask") (tstamp 79e2eb50-f273-4cae-b580-ec7a49d5f6fd))
    (pad "MP" thru_hole circle (at 7.5 8.1) (size 3.2 3.2) (drill 2.6) (layers "*.Cu" "*.Mask") (tstamp 9f11ed69-8d15-448d-be2c-782f4d3e5b93))
    (pad "S1" thru_hole circle (at 14.5 5) (size 2 2) (drill 1) (layers "*.Cu" "*.Mask")
      (net 5 "GND") (pinfunction "S1") (pintype "passive") (tstamp ef4e9cfb-e05e-469f-b445-cbdd092d1b31))
    (pad "S2" thru_hole circle (at 14.5 0) (size 2 2) (drill 1) (layers "*.Cu" "*.Mask")
      (net 32 "Net-(C1-Pad1)") (pinfunction "S2") (pintype "passive") (tstamp fee1b34e-abc0-46ba-8c44-30f0971cbba0))
    (model "${KICAD6_3DMODEL_DIR}/Rotary_Encoder.3dshapes/RotaryEncoder_Alps_EC11E-Switch_Vertical_H20mm_CircularMountingHoles.wrl"
      (offset (xyz 0 0 0))
      (scale (xyz 1 1 1))
      (rotate (xyz 0 0 0))
    )
  )

  (footprint "Resistor_SMD:R_0805_2012Metric" (layer "F.Cu")
    (tstamp e2b8f1f9-a673-4290-8c85-de17d850d30b)
    (at 118.84 60.93)
    (descr "Resistor SMD 0805 (2012 Metric), square (rectangular) end terminal, IPC_7351 nominal, (Body size source: IPC-SM-782 page 72, https://www.pcb-3d.com/wordpress/wp-content/uploads/ipc-sm-782a_amendment_1_and_2.pdf), generated with kicad-footprint-generator")
    (tags "resistor")
    (property "Sheetfile" "mainboard.kicad_sch")
    (property "Sheetname" "")
    (property "ki_description" "Resistor")
    (property "ki_keywords" "R res resistor")
    (path "/00dc33ab-b8e5-40c6-a5c9-1f0142501453")
    (attr smd)
    (fp_text reference "R3" (at 0 -1.65) (layer "F.SilkS")
        (effects (font (size 1 1) (thickness 0.15)))
      (tstamp d7d33bf2-eac0-4fa9-9bc0-fc2c6a4a9a33)
    )
    (fp_text value "R" (at 0 1.65) (layer "F.Fab")
        (effects (font (size 1 1) (thickness 0.15)))
      (tstamp fd16f253-44b0-4cd2-932c-ace08df81e09)
    )
    (fp_text user "${REFERENCE}" (at 0 0) (layer "F.Fab")
        (effects (font (size 0.5 0.5) (thickness 0.08)))
      (tstamp 439eabfb-635b-45df-80e4-aaeceab79f02)
    )
    (fp_line (start -0.227064 -0.735) (end 0.227064 -0.735)
      (stroke (width 0.12) (type solid)) (layer "F.SilkS") (tstamp 12b93f67-17d1-4745-8e46-ada10b9bcc85))
    (fp_line (start -0.227064 0.735) (end 0.227064 0.735)
      (stroke (width 0.12) (type solid)) (layer "F.SilkS") (tstamp 76893efd-f66d-448d-97ed-176d981cd315))
    (fp_line (start -1.68 -0.95) (end 1.68 -0.95)
      (stroke (width 0.05) (type solid)) (layer "F.CrtYd") (tstamp ac9f6118-82f4-4e5f-87e3-b4487ec3a23e))
    (fp_line (start -1.68 0.95) (end -1.68 -0.95)
      (stroke (width 0.05) (type solid)) (layer "F.CrtYd") (tstamp 75bb72db-3142-4279-b605-d4c900a95234))
    (fp_line (start 1.68 -0.95) (end 1.68 0.95)
      (stroke (width 0.05) (type solid)) (layer "F.CrtYd") (tstamp 93a76a95-64cc-4149-9a1b-1518bc3f8e2d))
    (fp_line (start 1.68 0.95) (end -1.68 0.95)
      (stroke (width 0.05) (type solid)) (layer "F.CrtYd") (tstamp 67a358e4-c407-4825-a8cb-c67a6eae22ab))
    (fp_line (start -1 -0.625) (end 1 -0.625)
      (stroke (width 0.1) (type solid)) (layer "F.Fab") (tstamp 555c718f-7d7a-4633-8e8f-49f57f609668))
    (fp_line (start -1 0.625) (end -1 -0.625)
      (stroke (width 0.1) (type solid)) (layer "F.Fab") (tstamp 9e4879a7-382f-45c4-b43d-e3ca4711ac0e))
    (fp_line (start 1 -0.625) (end 1 0.625)
      (stroke (width 0.1) (type solid)) (layer "F.Fab") (tstamp bf8a7a7a-cbe1-4765-86df-4ebe0909716f))
    (fp_line (start 1 0.625) (end -1 0.625)
      (stroke (width 0.1) (type solid)) (layer "F.Fab") (tstamp 0ff875cf-33fa-458f-896e-8d21cc48d348))
    (pad "1" smd roundrect (at -0.9125 0) (size 1.025 1.4) (layers "F.Cu" "F.Paste" "F.Mask") (roundrect_rratio 0.243902)
      (net 1 "+3V3") (pintype "passive") (tstamp 6bb4c39a-96e0-4ce0-b3af-025cdeb86934))
    (pad "2" smd roundrect (at 0.9125 0) (size 1.025 1.4) (layers "F.Cu" "F.Paste" "F.Mask") (roundrect_rratio 0.243902)
      (net 4 "SCL1") (pintype "passive") (tstamp 2a634200-a47b-48e3-97ae-6ec6f7589471))
    (model "${KICAD6_3DMODEL_DIR}/Resistor_SMD.3dshapes/R_0805_2012Metric.wrl"
      (offset (xyz 0 0 0))
      (scale (xyz 1 1 1))
      (rotate (xyz 0 0 0))
    )
  )

  (footprint "Package_TO_SOT_SMD:SOT-23" (layer "F.Cu")
    (tstamp e87b2a91-e66e-4e39-b2fd-cd10f765d659)
    (at 119.08 67.58)
    (descr "SOT, 3 Pin (https://www.jedec.org/system/files/docs/to-236h.pdf variant AB), generated with kicad-footprint-generator ipc_gullwing_generator.py")
    (tags "SOT TO_SOT_SMD")
    (property "Sheetfile" "mainboard.kicad_sch")
    (property "Sheetname" "")
    (property "ki_description" "50V Vds, 0.22A Id, N-Channel MOSFET, SOT-23")
    (property "ki_keywords" "N-Channel MOSFET")
    (path "/cb7362b6-57d4-48da-9506-eaf5293f1041")
    (attr smd)
    (fp_text reference "Q1" (at 0 -2.4) (layer "F.SilkS")
        (effects (font (size 1 1) (thickness 0.15)))
      (tstamp 09a1ce92-4923-481c-8934-893728a74919)
    )
    (fp_text value "BSS138" (at 0 2.4) (layer "F.Fab")
        (effects (font (size 1 1) (thickness 0.15)))
      (tstamp 594c0fee-3d33-49f7-b08d-5de3c86107e7)
    )
    (fp_text user "${REFERENCE}" (at 0 0) (layer "F.Fab")
        (effects (font (size 0.32 0.32) (thickness 0.05)))
      (tstamp 7bc66c3d-47f5-4216-94d8-162cc9f44c09)
    )
    (fp_line (start 0 -1.56) (end -1.675 -1.56)
      (stroke (width 0.12) (type solid)) (layer "F.SilkS") (tstamp 5ec3382e-35d0-42c0-b963-d9f8b106f75e))
    (fp_line (start 0 -1.56) (end 0.65 -1.56)
      (stroke (width 0.12) (type solid)) (layer "F.SilkS") (tstamp 179c1371-77ad-4ac4-adb0-8714784e4b3a))
    (fp_line (start 0 1.56) (end -0.65 1.56)
      (stroke (width 0.12) (type solid)) (layer "F.SilkS") (tstamp 86a8d34d-de77-4205-b2a7-a53145c0625f))
    (fp_line (start 0 1.56) (end 0.65 1.56)
      (stroke (width 0.12) (type solid)) (layer "F.SilkS") (tstamp ff3ca9d9-131b-47d8-9c3c-eb5aa9a000fd))
    (fp_line (start -1.92 -1.7) (end -1.92 1.7)
      (stroke (width 0.05) (type solid)) (layer "F.CrtYd") (tstamp bbceb3a4-9485-4d6d-97a9-09b5f7e1a4a1))
    (fp_line (start -1.92 1.7) (end 1.92 1.7)
      (stroke (width 0.05) (type solid)) (layer "F.CrtYd") (tstamp 9c8274fe-0d9e-488c-8fa6-a35b1818f817))
    (fp_line (start 1.92 -1.7) (end -1.92 -1.7)
      (stroke (width 0.05) (type solid)) (layer "F.CrtYd") (tstamp 63b6ac29-9143-42de-8704-d9382da1329a))
    (fp_line (start 1.92 1.7) (end 1.92 -1.7)
      (stroke (width 0.05) (type solid)) (layer "F.CrtYd") (tstamp 695e4555-9c22-40d3-a492-0a61401c3415))
    (fp_line (start -0.65 -1.125) (end -0.325 -1.45)
      (stroke (width 0.1) (type solid)) (layer "F.Fab") (tstamp 31ca239a-e0bd-43bc-b2bb-9e076fba3828))
    (fp_line (start -0.65 1.45) (end -0.65 -1.125)
      (stroke (width 0.1) (type solid)) (layer "F.Fab") (tstamp 46e82f8a-e048-4c1f-9b11-b10f0e227ea3))
    (fp_line (start -0.325 -1.45) (end 0.65 -1.45)
      (stroke (width 0.1) (type solid)) (layer "F.Fab") (tstamp e97bf746-8d97-42ce-80ee-f6ca2b460868))
    (fp_line (start 0.65 -1.45) (end 0.65 1.45)
      (stroke (width 0.1) (type solid)) (layer "F.Fab") (tstamp 40f24ba2-5f88-416b-a666-75647c7b2e56))
    (fp_line (start 0.65 1.45) (end -0.65 1.45)
      (stroke (width 0.1) (type solid)) (layer "F.Fab") (tstamp b776557e-a5ff-4214-bf52-6048a6f2a977))
    (pad "1" smd roundrect (at -0.9375 -0.95) (size 1.475 0.6) (layers "F.Cu" "F.Paste" "F.Mask") (roundrect_rratio 0.25)
      (net 1 "+3V3") (pinfunction "G") (pintype "input") (tstamp 0dd9ffe0-a19c-4b48-9b65-05ca788ea7d0))
    (pad "2" smd roundrect (at -0.9375 0.95) (size 1.475 0.6) (layers "F.Cu" "F.Paste" "F.Mask") (roundrect_rratio 0.25)
      (net 3 "SDA1") (pinfunction "S") (pintype "passive") (tstamp 87cad4ad-c26b-4e1e-865a-0a2fca34b4ad))
    (pad "3" smd roundrect (at 0.9375 0) (size 1.475 0.6) (layers "F.Cu" "F.Paste" "F.Mask") (roundrect_rratio 0.25)
      (net 29 "Net-(Q1-D)") (pinfunction "D") (pintype "passive") (tstamp ee044bae-b427-4117-915f-d617267a04a5))
    (model "${KICAD6_3DMODEL_DIR}/Package_TO_SOT_SMD.3dshapes/SOT-23.wrl"
      (offset (xyz 0 0 0))
      (scale (xyz 1 1 1))
      (rotate (xyz 0 0 0))
    )
  )

  (footprint "Capacitor_SMD:C_0805_2012Metric" (layer "F.Cu")
    (tstamp eaded9ac-7ca9-43b6-9f51-f5f0c4f4129f)
    (at 157.48 95.57 -90)
    (descr "Capacitor SMD 0805 (2012 Metric), square (rectangular) end terminal, IPC_7351 nominal, (Body size source: IPC-SM-782 page 76, https://www.pcb-3d.com/wordpress/wp-content/uploads/ipc-sm-782a_amendment_1_and_2.pdf, https://docs.google.com/spreadsheets/d/1BsfQQcO9C6DZCsRaXUlFlo91Tg2WpOkGARC1WS5S8t0/edit?usp=sharing), generated with kicad-footprint-generator")
    (tags "capacitor")
    (property "Sheetfile" "mainboard.kicad_sch")
    (property "Sheetname" "")
    (property "ki_description" "Unpolarized capacitor")
    (property "ki_keywords" "cap capacitor")
    (path "/7a72a78d-ddc2-4ebc-bb9c-b24de4c1fd1e")
    (attr smd)
    (fp_text reference "C1" (at 0 -1.68 90) (layer "F.SilkS")
        (effects (font (size 1 1) (thickness 0.15)))
      (tstamp 7937aac8-4cf7-4d4c-a882-e17d7676d9fc)
    )
    (fp_text value "100nF" (at 0 1.68 90) (layer "F.Fab")
        (effects (font (size 1 1) (thickness 0.15)))
      (tstamp d30f0c50-04c7-4182-91c6-aa154d7bfb06)
    )
    (fp_text user "${REFERENCE}" (at 0 0 90) (layer "F.Fab")
        (effects (font (size 0.5 0.5) (thickness 0.08)))
      (tstamp ec15df48-53a1-4752-8d05-d48ab6001317)
    )
    (fp_line (start -0.261252 -0.735) (end 0.261252 -0.735)
      (stroke (width 0.12) (type solid)) (layer "F.SilkS") (tstamp 2e11b676-1723-4847-9508-51ce8c0e18d9))
    (fp_line (start -0.261252 0.735) (end 0.261252 0.735)
      (stroke (width 0.12) (type solid)) (layer "F.SilkS") (tstamp a60ab75f-dd94-4916-b53a-5041a0f84f62))
    (fp_line (start -1.7 -0.98) (end 1.7 -0.98)
      (stroke (width 0.05) (type solid)) (layer "F.CrtYd") (tstamp c5de93eb-d841-46e4-aac6-5561a93ed67c))
    (fp_line (start -1.7 0.98) (end -1.7 -0.98)
      (stroke (width 0.05) (type solid)) (layer "F.CrtYd") (tstamp 95495438-8962-41ec-84df-1f4a9e5c7541))
    (fp_line (start 1.7 -0.98) (end 1.7 0.98)
      (stroke (width 0.05) (type solid)) (layer "F.CrtYd") (tstamp ac1643d7-6fd8-4b71-81dd-ad01e97436bc))
    (fp_line (start 1.7 0.98) (end -1.7 0.98)
      (stroke (width 0.05) (type solid)) (layer "F.CrtYd") (tstamp 8baf6915-2482-44f1-8e22-6fc22bbe5dc7))
    (fp_line (start -1 -0.625) (end 1 -0.625)
      (stroke (width 0.1) (type solid)) (layer "F.Fab") (tstamp 2a228174-a58c-4c00-9ec3-c7c854f13570))
    (fp_line (start -1 0.625) (end -1 -0.625)
      (stroke (width 0.1) (type solid)) (layer "F.Fab") (tstamp 127feed2-f742-48b9-aff4-49db0ae90d09))
    (fp_line (start 1 -0.625) (end 1 0.625)
      (stroke (width 0.1) (type solid)) (layer "F.Fab") (tstamp 56adf514-9297-4c4c-8c14-98d075e5a914))
    (fp_line (start 1 0.625) (end -1 0.625)
      (stroke (width 0.1) (type solid)) (layer "F.Fab") (tstamp 0b963074-df5b-44d2-9e57-e9be18b8fd84))
    (pad "1" smd roundrect (at -0.95 0 270) (size 1 1.45) (layers "F.Cu" "F.Paste" "F.Mask") (roundrect_rratio 0.25)
      (net 32 "Net-(C1-Pad1)") (pintype "passive") (tstamp 9d62458a-5758-42d8-b8cd-396cfc9f35e7))
    (pad "2" smd roundrect (at 0.95 0 270) (size 1 1.45) (layers "F.Cu" "F.Paste" "F.Mask") (roundrect_rratio 0.25)
      (net 5 "GND") (pintype "passive") (tstamp 1ea9d29e-0897-46f6-8e9a-1979856cfb90))
    (model "${KICAD6_3DMODEL_DIR}/Capacitor_SMD.3dshapes/C_0805_2012Metric.wrl"
      (offset (xyz 0 0 0))
      (scale (xyz 1 1 1))
      (rotate (xyz 0 0 0))
    )
  )

  (footprint "Resistor_SMD:R_0805_2012Metric" (layer "F.Cu")
    (tstamp f8cc844d-e704-46f7-8da4-e3ea3f1542a4)
    (at 160.02 90.17 -90)
    (descr "Resistor SMD 0805 (2012 Metric), square (rectangular) end terminal, IPC_7351 nominal, (Body size source: IPC-SM-782 page 72, https://www.pcb-3d.com/wordpress/wp-content/uploads/ipc-sm-782a_amendment_1_and_2.pdf), generated with kicad-footprint-generator")
    (tags "resistor")
    (property "Sheetfile" "mainboard.kicad_sch")
    (property "Sheetname" "")
    (property "ki_description" "Resistor")
    (property "ki_keywords" "R res resistor")
    (path "/a2e33473-97d3-4ec7-bd74-ddb08c3980a4")
    (attr smd)
    (fp_text reference "R5" (at 0 -1.65 90) (layer "F.SilkS")
        (effects (font (size 1 1) (thickness 0.15)))
      (tstamp d8886931-163e-43dc-95ce-eb275ccfff26)
    )
    (fp_text value "10k" (at 0 1.65 90) (layer "F.Fab")
        (effects (font (size 1 1) (thickness 0.15)))
      (tstamp 64699f6f-b56b-4f63-9253-b1b56fec5874)
    )
    (fp_text user "${REFERENCE}" (at 0 0 90) (layer "F.Fab")
        (effects (font (size 0.5 0.5) (thickness 0.08)))
      (tstamp 0a842cc5-d7ca-44a8-83a2-eb7259c5cda6)
    )
    (fp_line (start -0.227064 -0.735) (end 0.227064 -0.735)
      (stroke (width 0.12) (type solid)) (layer "F.SilkS") (tstamp 4eaa060d-7dc9-46ab-bde3-a052344889cb))
    (fp_line (start -0.227064 0.735) (end 0.227064 0.735)
      (stroke (width 0.12) (type solid)) (layer "F.SilkS") (tstamp 5e41650a-7960-486f-bd33-ab0400bfdaab))
    (fp_line (start -1.68 -0.95) (end 1.68 -0.95)
      (stroke (width 0.05) (type solid)) (layer "F.CrtYd") (tstamp 12842cbd-5b41-4b56-a687-1266062e8554))
    (fp_line (start -1.68 0.95) (end -1.68 -0.95)
      (stroke (width 0.05) (type solid)) (layer "F.CrtYd") (tstamp 086c57b0-d3c8-4d29-b2f6-5ed1f221050e))
    (fp_line (start 1.68 -0.95) (end 1.68 0.95)
      (stroke (width 0.05) (type solid)) (layer "F.CrtYd") (tstamp 5cd988d9-9d48-4003-bab1-e8642f12d32f))
    (fp_line (start 1.68 0.95) (end -1.68 0.95)
      (stroke (width 0.05) (type solid)) (layer "F.CrtYd") (tstamp fa71e3fa-3918-46f9-8ad8-046cbfd37147))
    (fp_line (start -1 -0.625) (end 1 -0.625)
      (stroke (width 0.1) (type solid)) (layer "F.Fab") (tstamp 9f28dca9-42a4-43a4-8c7f-be9f82841778))
    (fp_line (start -1 0.625) (end -1 -0.625)
      (stroke (width 0.1) (type solid)) (layer "F.Fab") (tstamp 7ad47a53-5865-4441-8934-38643e999e78))
    (fp_line (start 1 -0.625) (end 1 0.625)
      (stroke (width 0.1) (type solid)) (layer "F.Fab") (tstamp d43dd717-b718-480e-8506-bce6e6cdccca))
    (fp_line (start 1 0.625) (end -1 0.625)
      (stroke (width 0.1) (type solid)) (layer "F.Fab") (tstamp 3fdfacba-b639-48b7-90bd-bb948b487935))
    (pad "1" smd roundrect (at -0.9125 0 270) (size 1.025 1.4) (layers "F.Cu" "F.Paste" "F.Mask") (roundrect_rratio 0.243902)
      (net 31 "BTN_IN") (pintype "passive") (tstamp 66844301-5053-4724-a732-92b4788ebd84))
    (pad "2" smd roundrect (at 0.9125 0 270) (size 1.025 1.4) (layers "F.Cu" "F.Paste" "F.Mask") (roundrect_rratio 0.243902)
      (net 32 "Net-(C1-Pad1)") (pintype "passive") (tstamp 579ca640-9ab5-48ef-aa09-c377c511f31c))
    (model "${KICAD6_3DMODEL_DIR}/Resistor_SMD.3dshapes/R_0805_2012Metric.wrl"
      (offset (xyz 0 0 0))
      (scale (xyz 1 1 1))
      (rotate (xyz 0 0 0))
    )
  )

  (footprint "Resistor_SMD:R_0805_2012Metric" (layer "F.Cu")
    (tstamp fb221299-0163-43fc-8b91-291c0db434c1)
    (at 118.84 63.88)
    (descr "Resistor SMD 0805 (2012 Metric), square (rectangular) end terminal, IPC_7351 nominal, (Body size source: IPC-SM-782 page 72, https://www.pcb-3d.com/wordpress/wp-content/uploads/ipc-sm-782a_amendment_1_and_2.pdf), generated with kicad-footprint-generator")
    (tags "resistor")
    (property "Sheetfile" "mainboard.kicad_sch")
    (property "Sheetname" "")
    (property "ki_description" "Resistor")
    (property "ki_keywords" "R res resistor")
    (path "/a5852318-e948-4791-9eaa-a51cf9e6a7dc")
    (attr smd)
    (fp_text reference "R4" (at 0 -1.65) (layer "F.SilkS")
        (effects (font (size 1 1) (thickness 0.15)))
      (tstamp 2ad45e04-c96d-4049-a6e0-a057224ff20f)
    )
    (fp_text value "R" (at 0 1.65) (layer "F.Fab")
        (effects (font (size 1 1) (thickness 0.15)))
      (tstamp 440097f1-df68-4e1a-9c5d-3edf1c806517)
    )
    (fp_text user "${REFERENCE}" (at 0 0) (layer "F.Fab")
        (effects (font (size 0.5 0.5) (thickness 0.08)))
      (tstamp 5481e0ea-6e00-4343-b31e-97591fcfbbbc)
    )
    (fp_line (start -0.227064 -0.735) (end 0.227064 -0.735)
      (stroke (width 0.12) (type solid)) (layer "F.SilkS") (tstamp 687d181f-1858-49c4-9d20-7259eba2e979))
    (fp_line (start -0.227064 0.735) (end 0.227064 0.735)
      (stroke (width 0.12) (type solid)) (layer "F.SilkS") (tstamp 6690da6f-4de4-4f7d-b898-03944c7c791f))
    (fp_line (start -1.68 -0.95) (end 1.68 -0.95)
      (stroke (width 0.05) (type solid)) (layer "F.CrtYd") (tstamp c3e54265-e51c-4c1e-bfed-a1d9378ffe30))
    (fp_line (start -1.68 0.95) (end -1.68 -0.95)
      (stroke (width 0.05) (type solid)) (layer "F.CrtYd") (tstamp 90e655a4-ef81-4c7c-938e-001ae8b77b57))
    (fp_line (start 1.68 -0.95) (end 1.68 0.95)
      (stroke (width 0.05) (type solid)) (layer "F.CrtYd") (tstamp d5d1824d-aa25-4ec1-b200-4441a0750a89))
    (fp_line (start 1.68 0.95) (end -1.68 0.95)
      (stroke (width 0.05) (type solid)) (layer "F.CrtYd") (tstamp 93f2845a-88bc-45b8-9fcd-6b2d6d2e74c9))
    (fp_line (start -1 -0.625) (end 1 -0.625)
      (stroke (width 0.1) (type solid)) (layer "F.Fab") (tstamp e2569f72-281e-4d78-8f6c-baa95cd0bc72))
    (fp_line (start -1 0.625) (end -1 -0.625)
      (stroke (width 0.1) (type solid)) (layer "F.Fab") (tstamp 4e798c80-94a7-4561-9f18-d9d219cf3539))
    (fp_line (start 1 -0.625) (end 1 0.625)
      (stroke (width 0.1) (type solid)) (layer "F.Fab") (tstamp 86359da7-d869-422c-801d-7137384bdd89))
    (fp_line (start 1 0.625) (end -1 0.625)
      (stroke (width 0.1) (type solid)) (layer "F.Fab") (tstamp 8206e111-20dd-46fd-ac76-b02402d15991))
    (pad "1" smd roundrect (at -0.9125 0) (size 1.025 1.4) (layers "F.Cu" "F.Paste" "F.Mask") (roundrect_rratio 0.243902)
      (net 2 "+5V") (pintype "passive") (tstamp 941dfd9e-c6ba-47aa-a55d-170d79e6ca6b))
    (pad "2" smd roundrect (at 0.9125 0) (size 1.025 1.4) (layers "F.Cu" "F.Paste" "F.Mask") (roundrect_rratio 0.243902)
      (net 30 "Net-(Q2-D)") (pintype "passive") (tstamp 90cc179d-275f-4280-a594-791d9d9220e3))
    (model "${KICAD6_3DMODEL_DIR}/Resistor_SMD.3dshapes/R_0805_2012Metric.wrl"
      (offset (xyz 0 0 0))
      (scale (xyz 1 1 1))
      (rotate (xyz 0 0 0))
    )
  )

)
